# Blender MTL File: 'None'
# Material Count: 2

newmtl Mat.7
Ns 225.000000
Ka 1.000000 1.000000 1.000000
Kd 0.000000 0.000000 0.000000
Ks 0.500000 0.500000 0.500000
Ke 0.0 0.0 0.0
Ni 1.450000
d 1.000000
illum 2

newmtl Red
Ns 225.000000
Ka 1.000000 1.000000 1.000000
Kd 0.800000 0.000000 0.027373
Ks 0.500000 0.500000 0.500000
Ke 0.0 0.0 0.0
Ni 1.450000
d 1.000000
illum 2
