# Blender v2.80 (sub 75) OBJ File: ''
# www.blender.org
mtllib Apple.mtl
o Apple.1
v -0.000876 0.122419 -0.002162
v -0.002431 0.120670 -0.004317
v -0.001738 0.122111 0.005433
v -0.014500 0.166726 -0.010127
v -0.013215 0.163115 -0.016244
v -0.017663 0.162324 -0.013878
v -0.007673 0.135365 -0.007084
v -0.005586 0.133987 -0.002716
v -0.011947 0.152223 -0.009253
v -0.012141 0.153673 -0.012251
v -0.006291 0.139693 -0.008539
v -0.007981 0.149711 -0.007790
v -0.011157 0.160485 -0.009023
v -0.002491 0.123489 -0.002033
v 0.001607 0.114897 -0.006015
v -0.000771 0.123583 -0.005861
v -0.002698 0.135285 -0.005635
v -0.002650 0.112693 0.000684
v -0.009334 0.155020 -0.012265
v -0.009636 0.165213 -0.012773
v 0.003790 0.119605 -0.001364
v 0.066954 0.078510 0.030998
v 0.069951 0.087058 0.015620
v 0.065141 0.094974 0.025433
v 0.020827 0.002214 0.004067
v 0.015390 0.003718 0.016514
v 0.011540 0.008789 0.008740
v -0.054040 0.124924 0.030409
v -0.047275 0.132537 0.026351
v -0.055736 0.130472 0.011870
v 0.019259 0.133637 -0.012051
v 0.028985 0.135491 -0.009967
v 0.012418 0.131964 -0.017983
v -0.017769 0.002828 -0.023291
v -0.020870 0.003840 -0.003528
v -0.022782 0.002538 -0.023425
v 0.068599 0.092614 -0.016893
v 0.065453 0.089594 -0.027028
v 0.064006 0.104482 -0.019323
v 0.052106 0.114988 -0.032461
v 0.059658 0.098096 -0.033309
v 0.052175 0.100626 -0.042094
v -0.026212 0.004356 0.019954
v -0.021044 0.002594 0.031564
v -0.034013 0.003884 0.021353
v -0.050372 0.013339 0.028229
v -0.032144 0.008673 0.042643
v -0.041981 0.018086 0.045463
v 0.007300 0.009624 -0.004820
v 0.002897 0.014311 -0.000590
v 0.002203 0.014426 -0.004890
v 0.027629 0.000858 0.007914
v 0.029290 0.001743 0.020421
v 0.020229 0.001916 0.031147
v -0.000739 0.103876 -0.068076
v 0.011424 0.102181 -0.067149
v -0.000303 0.086683 -0.072954
v 0.042418 0.007083 -0.009659
v 0.053145 0.016253 -0.000126
v 0.043406 0.006799 -0.000579
v -0.075364 0.070736 -0.030388
v -0.077313 0.054560 -0.021361
v -0.080576 0.070210 -0.015340
v -0.047392 0.092831 -0.056049
v -0.040467 0.101183 -0.057416
v -0.038558 0.085190 -0.063931
v 0.038696 0.055479 0.063116
v 0.050019 0.068410 0.055558
v 0.040187 0.069000 0.064318
v 0.059085 0.111336 0.020948
v 0.052948 0.107708 0.039117
v 0.044221 0.049123 0.056489
v 0.027423 0.032735 0.061355
v -0.037564 0.086355 0.065154
v -0.047752 0.098953 0.056543
v -0.050043 0.083964 0.059161
v 0.059010 0.079786 0.044285
v 0.051330 0.090192 0.051801
v 0.045853 0.077821 0.059714
v 0.001776 0.124660 -0.015793
v 0.000930 0.130319 -0.025383
v -0.002818 0.124885 -0.017115
v -0.019522 0.065409 -0.071046
v -0.014241 0.056386 -0.070719
v -0.036999 0.057457 -0.064677
v 0.041464 0.126816 -0.031724
v 0.027272 0.128090 -0.042420
v 0.026259 0.132385 -0.034941
v -0.006170 0.001479 -0.029117
v 0.008209 0.002826 -0.021996
v -0.010148 0.003117 -0.021774
v -0.050732 0.078522 -0.056931
v -0.060238 0.024709 0.030263
v -0.052115 0.029533 0.044657
v -0.061128 0.041583 0.042735
v -0.052832 0.110786 -0.043592
v -0.057903 0.095673 -0.046747
v -0.062557 0.105371 -0.037487
v 0.071852 0.076275 0.014037
v 0.070591 0.090720 0.002880
v -0.008357 0.129620 -0.021638
v 0.065780 0.103599 0.008376
v -0.063120 0.054534 -0.043474
v -0.052414 0.059263 -0.055059
v -0.048879 0.049901 -0.055459
v 0.009156 0.126658 -0.010228
v -0.065958 0.120577 0.003196
v -0.062261 0.122132 0.017010
v -0.055233 0.009019 0.008093
v -0.060820 0.017305 0.017748
v -0.060753 0.013702 0.005360
v -0.016536 0.132164 0.000179
v -0.012779 0.130001 0.005850
v -0.012798 0.125179 -0.006252
v 0.002800 0.138612 0.028216
v -0.018310 0.138532 0.028753
v 0.017277 0.138299 0.034298
v -0.026174 0.004978 0.039424
v -0.045745 0.003574 0.008029
v 0.068203 0.048461 0.019514
v 0.065447 0.042071 0.021269
v 0.062390 0.032805 0.017670
v -0.028175 0.136153 -0.027365
v -0.036848 0.134823 -0.028644
v -0.037409 0.138202 -0.015301
v 0.047252 0.113308 -0.039930
v 0.037594 0.108881 -0.051815
v 0.006799 0.138789 0.022502
v 0.015874 0.139800 0.026853
v 0.024787 0.139166 0.012770
v 0.017483 0.105359 0.066570
v 0.015794 0.114792 0.061813
v -0.002232 0.102008 0.069067
v 0.044948 0.093798 0.057281
v 0.052833 0.100073 0.045078
v 0.037653 0.022311 -0.040585
v 0.050846 0.020041 -0.019887
v 0.040176 0.009803 -0.019706
v -0.073127 0.037930 -0.018664
v -0.079482 0.048896 -0.005859
v -0.074565 0.034789 -0.001838
v -0.025369 0.003754 -0.028469
v -0.039228 0.002152 -0.018109
v 0.018219 0.001493 0.020127
v 0.009503 0.000972 0.028600
v 0.005555 0.004244 0.020355
v -0.014545 0.009076 -0.007944
v -0.009306 0.010851 -0.007388
v -0.010002 0.012577 -0.003663
v 0.041780 0.133557 0.006891
v 0.033808 0.137061 0.015027
v 0.037248 0.134078 0.023899
v 0.047026 0.013431 0.023144
v 0.040991 0.016984 0.037978
v 0.036159 0.007886 0.029614
v -0.005800 0.128248 -0.048253
v 0.000947 0.122722 -0.055623
v -0.014602 0.124653 -0.051728
v -0.016354 0.028752 0.064696
v -0.025789 0.029957 0.062046
v -0.035312 0.018216 0.050771
v 0.044364 0.130537 -0.014412
v 0.051511 0.124125 -0.017044
v -0.070524 0.028297 0.011170
v 0.060920 0.039193 0.030177
v 0.056101 0.046114 0.042099
v 0.052830 0.034623 0.039304
v -0.066821 0.071755 0.044283
v -0.067963 0.082993 0.041692
v -0.073876 0.062900 0.032805
v 0.066055 0.059388 0.031270
v 0.020719 0.124293 0.053711
v 0.015630 0.132656 0.045729
v 0.003383 0.121082 0.058222
v -0.046666 0.124223 0.039905
v -0.050708 0.112005 0.047804
v -0.044669 0.031257 -0.049960
v -0.039200 0.017348 -0.042197
v -0.054797 0.025233 -0.036554
v 0.028913 0.112413 0.059572
v 0.034745 0.095118 0.064214
v 0.039912 0.108979 0.054109
v 0.042389 0.053409 -0.055072
v 0.043867 0.044892 -0.050531
v 0.031343 0.039620 -0.057228
v -0.007416 0.133875 0.044152
v -0.066597 0.028490 0.023413
v -0.067493 0.039416 0.032193
v -0.075182 0.043097 0.018832
v -0.050708 0.008844 0.018823
v -0.054965 0.053359 0.053683
v -0.065250 0.057012 0.043986
v 0.072255 0.080508 -0.007555
v 0.070912 0.064434 -0.014135
v 0.069577 0.076352 -0.021591
v 0.050514 0.127090 -0.000387
v 0.045544 0.129437 0.017781
v 0.011274 0.004643 -0.010951
v -0.000605 0.014307 -0.006050
v 0.014065 0.087769 -0.070472
v 0.036109 0.127080 0.040716
v 0.042226 0.126958 0.031967
v 0.032983 0.123128 0.048507
v 0.042758 0.119275 0.042240
v -0.026189 0.048607 -0.065805
v -0.037873 0.044387 -0.060351
v -0.001917 0.010423 0.018118
v -0.000345 0.004218 0.029266
v 0.004444 0.006525 -0.040497
v 0.008305 0.012704 -0.047858
v 0.024357 0.008720 -0.033345
v -0.018091 0.117264 -0.057809
v -0.030712 0.126514 -0.044849
v -0.010995 0.132539 -0.032577
v 0.000866 0.131942 -0.033012
v -0.019086 0.133238 -0.010825
v -0.024576 0.137278 -0.005143
v 0.028512 0.016614 -0.042019
v 0.010054 0.079131 0.075054
v 0.024828 0.089131 0.070079
v 0.006405 0.089746 0.073255
v -0.002066 0.113670 0.063177
v -0.015717 0.005670 0.020792
v -0.001969 0.009429 0.049642
v 0.014721 0.005996 0.044984
v 0.004050 0.015122 0.056095
v -0.080964 0.080183 -0.010698
v -0.075249 0.080250 -0.029652
v -0.074236 0.051889 0.028088
v -0.080970 0.059410 0.010762
v -0.054905 0.103526 0.049063
v 0.010829 0.129725 -0.000642
v 0.018533 0.135371 -0.000082
v 0.037762 0.134814 -0.005322
v 0.056979 0.058162 0.045591
v 0.026267 0.017468 0.052749
v 0.042015 0.030256 0.048448
v -0.014834 0.138651 0.023905
v -0.002923 0.010677 -0.001140
v 0.030785 0.133775 -0.025855
v 0.016554 0.013447 0.053194
v 0.023124 0.009863 0.046216
v 0.017644 0.030370 -0.058091
v 0.020741 0.042322 -0.063161
v 0.006807 0.003952 -0.018174
v 0.025635 0.000467 -0.011140
v 0.020293 0.000579 -0.007802
v -0.017958 0.045386 0.071592
v -0.026740 0.056325 0.070866
v -0.038486 0.038341 0.060021
v 0.015651 0.056587 -0.069399
v -0.000835 0.053529 -0.071122
v 0.005528 0.063867 -0.072719
v -0.023967 0.006288 -0.036187
v 0.067263 0.066040 -0.026388
v -0.030440 0.003705 0.011605
v -0.016945 0.011207 0.012238
v -0.043541 0.137516 0.014658
v -0.034595 0.137645 0.026727
v -0.034100 0.140060 0.016084
v -0.048770 0.039089 0.053621
v 0.027856 0.024467 -0.049831
v 0.023361 0.138619 0.028539
v 0.027100 0.133546 0.038808
v -0.000711 0.066425 0.076878
v -0.006644 0.078038 0.075965
v -0.011997 0.070062 0.076127
v 0.047215 0.010302 0.010352
v 0.038493 0.004189 0.010878
v -0.011066 0.089040 0.072972
v 0.063035 0.088679 0.034858
v -0.042018 0.068388 -0.063502
v -0.032445 0.082163 -0.066921
v -0.014232 0.075108 -0.072567
v -0.000532 0.071159 -0.073916
v 0.054117 0.024819 0.027853
v 0.048065 0.022567 0.035325
v -0.058995 0.040564 -0.042288
v -0.066532 0.044359 -0.035697
v -0.006833 0.056545 0.076109
v 0.061517 0.113324 -0.007537
v 0.054703 0.121334 0.010919
v 0.011832 0.075197 -0.072266
v 0.064536 0.035284 0.003628
v 0.057707 0.025920 -0.012009
v 0.066184 0.046115 -0.015717
v 0.061521 0.083223 -0.036050
v -0.040896 0.028406 0.053922
v -0.030681 0.138462 -0.014607
v -0.036411 0.140319 0.002963
v -0.000471 0.031681 -0.062485
v 0.004038 0.018781 -0.054305
v -0.008218 0.023553 -0.057546
v -0.026155 0.004292 0.003807
v -0.015586 0.120774 0.056620
v -0.030002 0.126640 0.047465
v -0.007310 0.121054 -0.011144
v -0.007696 0.113378 -0.003019
v -0.070599 0.094219 -0.032686
v -0.066195 0.091861 -0.039829
v 0.059435 0.056875 -0.036938
v -0.026472 0.010006 -0.041401
v -0.047063 0.010848 -0.028563
v 0.053554 0.080179 -0.046673
v 0.006142 0.014742 0.006060
v 0.002870 0.014594 0.010076
v 0.006696 0.012954 0.002865
v -0.069166 0.114901 -0.006926
v -0.061591 0.122759 -0.016128
v 0.031057 0.054183 -0.062450
v -0.004055 0.015577 0.012689
v -0.070040 0.109914 0.017890
v -0.076005 0.099440 0.012959
v -0.068734 0.101971 0.031007
v -0.006160 0.004704 0.039068
v -0.009690 0.004657 0.031455
v -0.030098 0.000152 -0.010681
v -0.035346 0.000000 -0.003715
v -0.074972 0.080876 0.029653
v 0.064208 0.048864 -0.023988
v 0.054306 0.027151 -0.023028
v 0.055464 0.040601 -0.033465
v 0.022787 0.134930 -0.024591
v 0.012376 0.133129 -0.036256
v -0.001783 0.111637 -0.006660
v -0.008030 0.125156 0.006095
v -0.049904 0.135171 0.006033
v -0.049439 0.133776 -0.015995
v -0.057247 0.129261 -0.008580
v -0.006592 0.003325 -0.036589
v -0.006517 0.007918 -0.044760
v -0.038872 0.127897 -0.039295
v -0.040246 0.115327 -0.049604
v -0.048907 0.123618 -0.036430
v 0.012144 0.025897 0.062716
v -0.000487 0.040359 0.071736
v -0.007238 0.026559 0.064814
v 0.042858 0.091164 -0.054531
v 0.069341 0.049136 -0.000291
v -0.063602 0.019215 -0.014241
v -0.054212 0.007561 -0.006616
v -0.064387 0.018280 -0.003526
v -0.005522 0.041874 -0.067241
v 0.009284 0.061622 0.075725
v 0.069104 0.096506 -0.007535
v -0.078640 0.067467 0.021898
v -0.078229 0.045539 0.008403
v -0.056021 0.069615 -0.052820
v -0.068330 0.067137 -0.040408
v -0.066892 0.083189 -0.041499
v -0.013985 0.131603 -0.019368
v -0.023991 0.136502 -0.016996
v -0.067586 0.110689 -0.023998
v -0.072515 0.103007 -0.020004
v 0.029558 0.049970 0.067024
v 0.072353 0.064924 0.003712
v -0.072276 0.091075 0.031554
v 0.034308 0.078255 0.067944
v 0.023066 0.073965 0.073031
v 0.030602 0.064619 0.069827
v -0.001320 0.010294 0.005493
v -0.081585 0.067780 0.010495
v -0.029248 0.140685 0.011102
v 0.045861 0.077835 -0.054553
v 0.046671 0.063934 -0.053470
v 0.035952 0.070236 -0.061726
v 0.010344 0.116748 -0.059514
v -0.000096 0.115966 -0.061272
v -0.018875 0.137979 0.013613
v 0.002156 0.134323 0.015479
v -0.042861 0.116633 0.050181
v -0.028897 0.119499 0.053854
v -0.003512 0.015788 -0.004009
v 0.010446 0.002681 0.039325
v -0.061911 0.099502 0.043704
v 0.070851 0.063877 0.019081
v -0.016404 0.086894 -0.070734
v -0.046802 0.003903 -0.012929
v -0.047317 0.059968 0.060859
v -0.019927 0.066223 0.074340
v -0.021629 0.084053 0.071741
v -0.006157 0.130815 -0.041367
v -0.079949 0.081910 0.014633
v -0.020282 0.100915 -0.066009
v 0.040310 0.122797 -0.038842
v 0.028081 0.118550 -0.052139
v -0.054614 0.011205 -0.020524
v -0.013170 0.014444 0.002351
v 0.010900 0.003211 -0.027288
v -0.033984 0.104999 0.060597
v 0.056394 0.021595 0.014768
v 0.031825 0.001126 -0.006816
v -0.007664 0.014777 0.013297
v -0.005232 0.007796 0.025754
v 0.020803 0.052093 0.071347
v -0.033939 0.066492 -0.066894
v -0.016658 0.004772 -0.017738
v 0.029024 0.002929 -0.018347
v 0.049363 0.014590 -0.013102
v 0.026673 0.100782 -0.061737
v -0.002144 0.007497 -0.013693
v 0.061825 0.068279 0.040542
v 0.040798 0.034573 -0.047694
v -0.010096 0.135865 0.016696
v 0.030648 0.082601 -0.063736
v -0.009518 0.011188 -0.012797
v -0.064928 0.028423 -0.026421
v -0.081705 0.064621 -0.007483
v -0.025655 0.037105 -0.061194
v -0.018363 0.101856 0.066563
v -0.060066 0.116730 0.032125
v -0.013478 0.015469 0.008234
v -0.011218 0.015076 0.005631
v -0.016835 0.011108 0.006082
v -0.073354 0.058506 -0.031925
v 0.008532 0.046373 0.072924
v 0.016125 0.126030 -0.049966
v 0.013966 0.131204 -0.041992
v -0.072705 0.109374 0.002497
v -0.028641 0.106756 -0.060597
v -0.042280 0.072225 0.064473
v 0.012561 0.004967 -0.002599
v -0.010368 0.009843 -0.000556
v -0.011039 0.018072 0.058017
v -0.021780 0.008765 0.046442
v -0.076765 0.090244 -0.020362
v 0.008247 0.040379 -0.065590
v -0.043633 0.137736 -0.005706
v 0.000379 0.002608 -0.033610
v -0.057089 0.086176 0.053395
v 0.002780 0.130071 0.009748
v 0.021208 0.131481 0.045757
v 0.059463 0.068681 -0.039648
v 0.052288 0.118674 0.026628
v -0.047619 0.130392 -0.027975
v -0.056087 0.123347 -0.029550
v -0.007351 0.012564 -0.049686
v -0.032583 0.023331 -0.051186
v -0.038961 0.033597 -0.054807
v 0.000429 0.128245 0.051457
v -0.011815 0.110174 -0.063459
v 0.016637 0.110687 -0.061654
v -0.072580 0.042920 -0.025189
v 0.022510 0.070248 -0.068358
v -0.077405 0.096365 -0.007637
v -0.007922 0.010875 0.008123
v -0.002566 0.136631 0.020244
v -0.026638 0.017187 0.053399
v -0.063549 0.109365 -0.033059
v -0.055764 0.070127 0.055756
v -0.010039 0.039780 0.071198
v -0.010080 0.136791 0.037836
v -0.022751 0.133773 0.040608
v -0.026638 0.000930 -0.004095
v -0.014154 0.009412 -0.001908
v 0.057536 0.116606 -0.018202
v -0.029371 0.133039 -0.036069
v -0.081371 0.083008 0.001588
v -0.038308 0.132060 0.036072
vn -0.7133 0.6988 -0.0526
vn -0.4121 0.7441 -0.5259
vn -0.9083 -0.1818 0.3767
vn -0.0913 -0.2911 -0.9523
vn -0.2503 0.0369 0.9675
vn -0.9234 -0.2534 0.2883
vn -0.5396 -0.1330 -0.8314
vn -0.3313 -0.2874 -0.8987
vn 0.7388 0.1733 -0.6513
vn -0.2415 -0.2391 -0.9405
vn -0.7369 -0.3444 -0.5817
vn -0.3489 -0.0050 0.9371
vn 0.9807 0.1723 -0.0921
vn 0.7005 -0.0148 -0.7135
vn -0.3751 -0.3969 -0.8377
vn 0.5028 0.8595 0.0920
vn 0.2627 0.2860 0.9215
vn 0.9839 0.1606 0.0785
vn 0.4391 0.5202 -0.7325
vn 0.5310 0.4150 0.7388
vn 0.0988 -0.2165 -0.9713
vn -0.9012 -0.2556 0.3500
vn 0.5950 0.3275 0.7340
vn -0.8042 -0.5538 -0.2158
vn -0.7116 -0.0833 0.6977
vn 0.9562 0.2878 0.0528
vn -0.9960 0.0657 0.0610
vn -0.9658 -0.2525 -0.0595
vn 0.9592 0.2607 0.1093
vn -0.1721 0.2787 0.9448
vn 0.6367 0.2354 0.7343
vn 0.7153 0.1310 -0.6864
vn -0.0099 0.8602 -0.5099
vn 0.9030 0.0480 0.4270
vn 0.1714 -0.3672 -0.9142
vn 0.9340 0.2024 0.2945
vn -0.6277 -0.7567 -0.1827
vn -0.6422 0.7162 0.2731
vn -0.1698 0.9821 -0.0811
vn 0.0562 -0.9966 0.0598
vn 0.8930 0.2723 -0.3583
vn 0.7578 0.3659 -0.5402
vn 0.0304 -0.9861 -0.1631
vn -0.5425 -0.7041 0.4581
vn -0.6836 -0.7241 0.0910
vn 0.0556 -0.9965 0.0631
vn 0.1110 0.2739 -0.9553
vn 0.6955 -0.7118 -0.0980
vn -0.9419 -0.0699 -0.3286
vn -0.4957 0.2763 -0.8234
vn 0.6542 -0.1382 0.7436
vn 0.8365 0.4094 0.3643
vn 0.5451 -0.3298 0.7708
vn -0.4563 0.2204 0.8621
vn 0.7529 0.0842 0.6528
vn -0.1057 0.8523 0.5123
vn -0.2603 -0.1867 -0.9473
vn -0.2603 -0.1962 -0.9454
vn -0.2604 -0.1876 -0.9471
vn 0.3891 0.8206 -0.4186
vn -0.0070 -0.9768 0.2141
vn -0.0130 -0.9774 0.2110
vn -0.0122 -0.9773 0.2115
vn -0.5629 0.1811 -0.8064
vn -0.7091 -0.4429 0.5486
vn -0.6309 0.3556 -0.6896
vn 0.9826 0.1593 0.0951
vn 0.1816 0.7820 0.5963
vn 0.9457 0.2966 0.1328
vn -0.6691 -0.2223 -0.7091
vn -0.4819 0.8044 0.3475
vn -0.4904 0.8016 0.3420
vn -0.4918 0.8011 0.3412
vn -0.7427 0.6579 0.1247
vn -0.6894 -0.6966 0.1988
vn 0.7385 0.6259 -0.2506
vn -0.0023 0.9984 0.0569
vn -0.0826 -0.9920 0.0958
vn 0.9226 -0.3592 0.1411
vn -0.1110 0.9623 -0.2484
vn 0.6508 0.3661 -0.6652
vn -0.0685 0.9938 -0.0881
vn 0.0354 0.4550 0.8898
vn 0.0394 0.4506 0.8918
vn 0.0360 0.4544 0.8901
vn 0.7145 0.3160 0.6242
vn 0.6107 -0.6446 -0.4600
vn -0.9342 -0.2725 -0.2302
vn -0.9204 -0.3625 -0.1463
vn -0.0456 -0.9762 -0.2119
vn -0.0446 -0.9769 -0.2089
vn -0.0454 -0.9763 -0.2114
vn -0.2089 -0.9391 -0.2727
vn 0.2446 -0.8615 0.4450
vn 0.4865 0.8676 0.1031
vn 0.5959 -0.6916 0.4081
vn -0.0636 0.7696 -0.6353
vn -0.2914 -0.5290 0.7970
vn 0.5889 0.7643 -0.2629
vn -0.7868 -0.5938 0.1684
vn 0.7812 -0.3484 0.5180
vn -0.8615 0.0293 0.5069
vn -0.8618 0.0296 0.5064
vn -0.8618 0.0297 0.5063
vn 0.8866 -0.2466 0.3912
vn 0.0530 0.7061 0.7061
vn -0.6360 0.5562 0.5349
vn -0.5177 -0.5631 -0.6441
vn 0.8617 -0.4037 0.3075
vn 0.5038 0.3783 0.7766
vn 0.5476 -0.3177 -0.7741
vn 0.0170 0.8956 0.4446
vn -0.8441 -0.3762 0.3821
vn -0.3652 -0.8917 0.2675
vn -0.7098 -0.2432 0.6611
vn 0.9826 -0.0061 -0.1857
vn 0.6323 0.7713 0.0733
vn -0.2587 -0.6706 0.6953
vn 0.1467 0.2477 -0.9577
vn 0.5259 0.7721 0.3569
vn 0.5957 0.5305 0.6030
vn -0.3220 -0.2781 -0.9050
vn -0.5309 -0.7700 -0.3538
vn 0.2780 -0.8026 -0.5278
vn -0.2202 0.6798 -0.6996
vn 0.0568 0.9766 0.2074
vn 0.6724 -0.1673 0.7211
vn 0.5588 0.8279 -0.0487
vn 0.3097 -0.7724 -0.5546
vn 0.1728 0.2220 0.9596
vn 0.0303 0.5400 0.8411
vn -0.4604 -0.6592 0.5945
vn 0.1379 -0.9683 -0.2083
vn 0.0244 -0.7609 0.6484
vn -0.9530 0.0965 -0.2870
vn -0.9398 -0.1946 0.2808
vn -0.5416 0.3795 0.7501
vn -0.5788 0.8010 -0.1530
vn -0.5787 0.8011 -0.1529
vn -0.5772 0.8025 -0.1513
vn 0.3773 0.9256 -0.0289
vn 0.7096 -0.1804 0.6811
vn 0.8898 0.3929 0.2320
vn 0.4811 -0.7180 0.5031
vn 0.5765 0.1620 0.8009
vn 0.5696 0.1559 0.8070
vn 0.5689 0.1552 0.8076
vn 0.5771 -0.3764 0.7247
vn -0.0032 0.9997 0.0222
vn 0.5339 -0.8386 -0.1086
vn 0.3850 0.8641 -0.3240
vn -0.7358 -0.5673 0.3699
vn 0.2516 -0.7440 0.6190
vn 0.3500 -0.4412 -0.8263
vn -0.1211 -0.9795 -0.1610
vn -0.2948 -0.3901 0.8723
vn -0.4028 -0.2652 0.8760
vn 0.5851 0.6040 0.5411
vn 0.1444 -0.2373 -0.9606
vn -0.1402 -0.9329 -0.3318
vn -0.6361 -0.7277 0.2564
vn 0.9527 -0.0771 -0.2938
vn 0.4845 -0.8564 -0.1785
vn -0.2829 0.9381 0.1997
vn -0.6527 -0.3841 0.6530
vn -0.7663 -0.4395 0.4687
vn 0.3710 -0.4749 -0.7980
vn 0.3842 0.8756 0.2927
vn -0.0492 0.0533 0.9974
vn 0.5754 -0.8156 0.0609
vn -0.0278 0.3055 0.9518
vn 0.8557 0.1407 0.4981
vn 0.5478 -0.6638 0.5092
vn -0.4135 0.0619 -0.9084
vn -0.0799 0.0628 -0.9948
vn 0.7588 -0.4372 0.4828
vn 0.7017 -0.5974 0.3883
vn -0.7068 -0.2644 -0.6561
vn -0.0761 -0.0304 0.9966
vn 0.8662 0.4879 0.1080
vn 0.2458 -0.0981 -0.9643
vn 0.9014 -0.4060 -0.1505
vn 0.8783 0.0250 -0.4775
vn -0.5325 -0.5024 0.6812
vn 0.5161 -0.7058 -0.4852
vn -0.0266 0.9932 -0.1137
vn 0.0172 -0.5311 -0.8471
vn 0.4698 -0.8613 0.1933
vn 0.5702 -0.7960 0.2031
vn -0.1334 0.7256 0.6750
vn 0.7582 0.4556 0.4665
vn 0.7338 0.3808 -0.5626
vn -0.8181 0.1519 -0.5546
vn 0.7866 0.6170 0.0226
vn 0.3155 -0.6900 0.6514
vn 0.7316 -0.2175 -0.6461
vn 0.1721 0.2820 0.9439
vn 0.3241 -0.6534 -0.6841
vn -0.3164 -0.8329 -0.4540
vn -0.3091 -0.8371 -0.4514
vn -0.3174 -0.8323 -0.4545
vn 0.7583 0.1908 -0.6234
vn 0.6022 -0.6476 0.4668
vn -0.7743 0.6241 -0.1045
vn -0.7687 0.6313 -0.1023
vn -0.7737 0.6249 -0.1042
vn 0.5100 -0.2814 -0.8128
vn -0.3825 -0.8899 -0.2485
vn -0.3250 -0.7465 -0.5806
vn -0.8821 0.3588 0.3051
vn -0.0410 -0.9988 0.0252
vn -0.1230 -0.9858 -0.1142
vn -0.8663 0.0346 0.4983
vn -0.0080 -0.9584 0.2854
vn 0.8208 -0.3927 -0.4149
vn -0.2467 -0.9504 0.1895
vn -0.1162 0.9920 -0.0494
vn -0.1138 0.9927 -0.0411
vn -0.1156 0.9922 -0.0474
vn 0.4267 0.5806 0.6934
vn 0.9269 0.3198 0.1964
vn 0.5524 0.5199 -0.6516
vn 0.5582 0.5177 -0.6484
vn 0.5605 0.5167 -0.6472
vn -0.6247 -0.4177 -0.6597
vn -0.5447 0.8362 -0.0645
vn 0.8340 -0.2088 0.5107
vn 0.0793 -0.8693 -0.4880
vn -0.3998 -0.4072 0.8212
vn -0.4450 0.5964 -0.6680
vn 0.0785 -0.4774 0.8752
vn 0.7052 0.1999 -0.6803
vn 0.3378 -0.8578 0.3874
vn 0.9476 -0.3163 0.0436
vn -0.7366 -0.6669 -0.1121
vn -0.0889 -0.2823 -0.9552
vn -0.2098 -0.9774 0.0264
vn -0.5102 0.4219 -0.7495
vn -0.6632 0.7258 -0.1826
vn 0.0596 -0.1141 0.9917
vn 0.9423 0.3310 0.0493
vn -0.9139 0.0154 0.4056
vn 0.7003 0.7067 0.1003
vn -0.9790 -0.2000 0.0389
vn -0.7115 0.0160 -0.7025
vn -0.6521 -0.6389 0.4083
vn -0.8030 -0.2572 0.5376
vn -0.8030 -0.2577 0.5373
vn -0.8630 -0.4183 0.2834
vn 0.4652 0.8693 0.1669
vn -0.8565 0.3545 -0.3750
vn 0.5302 -0.3235 0.7838
vn -0.1177 0.9767 -0.1796
vn -0.6996 0.7145 0.0094
vn 0.9288 0.3218 -0.1840
vn 0.2308 0.4707 0.8515
vn 0.9787 -0.1993 0.0494
vn -0.8662 0.1396 0.4798
vn -0.6209 0.1918 -0.7601
vn 0.4073 0.0154 0.9132
vn 0.4044 -0.8217 0.4015
vn -0.9667 -0.0632 0.2480
vn 0.0501 0.9948 -0.0888
vn 0.5998 -0.0274 -0.7997
vn 0.0825 0.6317 -0.7708
vn 0.5465 -0.8061 0.2271
vn -0.0806 0.9962 -0.0334
vn -0.4976 0.7260 -0.4748
vn -0.1745 -0.8394 -0.5147
vn -0.3164 0.6049 0.7307
vn -0.2152 0.6325 0.7441
vn -0.6549 -0.4259 -0.6242
vn -0.1152 -0.8891 0.4430
vn -0.8138 0.2334 0.5323
vn 0.9824 -0.1663 0.0847
vn -0.5360 -0.1569 -0.8295
vn -0.5360 -0.1657 -0.8278
vn -0.5361 -0.1579 -0.8293
vn -0.1282 0.2677 -0.9549
vn -0.8222 0.0538 -0.5666
vn -0.2702 -0.9602 -0.0707
vn -0.4579 -0.2203 0.8613
vn -0.3678 0.0997 0.9246
vn -0.1133 0.9928 -0.0388
vn 0.0053 0.9371 -0.3489
vn -0.9672 0.0386 0.2509
vn -0.9146 -0.3948 0.0871
vn -0.1429 0.2804 -0.9492
vn 0.4629 -0.8569 0.2268
vn 0.9115 0.4112 0.0071
vn -0.6212 -0.6239 0.4743
vn -0.7310 -0.4301 0.5297
vn 0.8159 0.3864 -0.4301
vn 0.7491 -0.3080 -0.5865
vn 0.5440 0.5129 -0.6641
vn -0.8044 0.3856 -0.4519
vn 0.8508 -0.4029 -0.3373
vn -0.5205 0.8395 0.1557
vn 0.9995 0.0231 0.0232
vn -0.5906 -0.6106 -0.5276
vn 0.9725 0.1917 -0.1322
vn 0.5787 -0.6744 0.4585
vn 0.3823 0.9116 0.1511
vn -0.0678 -0.9920 -0.1068
vn -0.9088 -0.3777 0.1772
vn 0.0506 -0.9870 0.1528
vn 0.3612 0.9170 -0.1691
vn -0.8546 -0.3301 0.4008
vn -0.3842 -0.7275 -0.5684
vn 0.0571 0.3584 0.9318
vn -0.3311 0.2836 0.9000
vn 0.2766 0.9609 -0.0136
vn 0.5046 0.5200 0.6892
vn -0.5202 -0.3479 -0.7799
vn -0.5207 -0.3476 -0.7798
vn -0.5200 -0.3481 -0.7800
vn 0.8583 -0.5131 -0.0032
vn 0.0988 -0.9951 0.0101
vn -0.0088 -0.8730 -0.4876
vn 0.6834 0.1551 -0.7133
vn 0.3519 -0.3315 0.8754
vn 0.4764 0.8767 -0.0665
vn -0.4030 -0.0871 -0.9111
vn -0.5135 0.5326 -0.6728
vn 0.0628 -0.9624 -0.2642
vn -0.0311 -0.9414 0.3357
vn 0.2459 -0.9468 -0.2078
vn 0.7871 -0.5533 -0.2726
vn 0.1299 0.0323 0.9910
vn 0.2370 0.5564 0.7964
vn 0.3440 0.2703 -0.8992
vn 0.0340 -0.7496 0.6610
vn -0.4969 -0.8663 0.0513
vn 0.7327 -0.1991 -0.6507
vn -0.8511 -0.5250 0.0024
vn 0.8415 -0.1430 0.5211
vn 0.6908 0.1469 0.7079
vn 0.0285 0.9675 0.2513
vn 0.9614 0.0335 0.2732
vn -0.2767 0.0003 -0.9609
vn -0.9451 0.0744 0.3183
vn 0.7039 -0.4827 -0.5210
vn -0.0119 -0.9603 0.2786
vn 0.1345 -0.9436 -0.3025
vn 0.3645 0.1369 0.9211
vn 0.5936 -0.5262 0.6089
vn -0.0915 0.9952 0.0358
vn -0.9481 -0.2254 0.2243
vn 0.8754 -0.4809 0.0489
vn 0.6376 0.6006 -0.4824
vn 0.4196 0.1894 -0.8877
vn 0.7614 0.6445 -0.0692
vn 0.3268 -0.9424 -0.0716
vn -0.7066 -0.4091 -0.5773
vn -0.7085 -0.4072 -0.5765
vn -0.7087 -0.4069 -0.5763
vn 0.1773 0.9796 -0.0946
vn -0.9972 -0.0727 0.0194
vn 0.0703 -0.5600 0.8255
vn 0.1454 -0.0413 -0.9885
vn 0.7203 -0.3747 -0.5837
vn -0.5289 0.5772 0.6222
vn -0.1847 -0.3731 -0.9092
vn -0.1672 0.4778 0.8624
vn -0.6910 0.4527 0.5635
vn 0.8134 0.2079 0.5434
vn 0.3196 -0.7738 -0.5468
vn -0.5123 -0.3556 0.7817
vn 0.1099 -0.5790 0.8079
vn 0.8022 -0.5753 -0.1600
vn 0.5585 -0.8106 -0.1762
vn -0.7665 -0.2075 -0.6078
vn 0.5044 -0.0179 0.8633
vn 0.7864 -0.6173 0.0240
vn -0.9448 -0.3276 0.0058
vn 0.0372 -0.2471 0.9683
vn -0.3971 -0.6965 -0.5976
vn 0.2021 0.8457 -0.4940
vn -0.8541 0.5077 -0.1130
vn -0.2826 0.3153 0.9059
vn -0.9901 -0.1400 -0.0001
vn 0.0715 -0.9951 0.0681
vn 0.4244 0.8908 -0.1623
vn -0.2250 0.4766 0.8498
vn -0.2224 0.4741 0.8519
vn -0.2230 0.4748 0.8514
vn -0.0022 0.9925 0.1224
vn -0.8529 0.5056 0.1299
vn 0.5769 0.1622 0.8006
vn 0.0543 -0.7454 0.6644
vn -0.3212 0.2527 -0.9127
vn -0.6716 0.6907 0.2681
vn -0.4217 0.4434 -0.7909
vn -0.3835 0.0837 0.9197
vn -0.5850 0.5790 0.5679
vn 0.2643 0.9631 -0.0500
vn -0.7627 0.3043 -0.5707
vn -0.4143 -0.8989 0.1425
vn 0.3280 -0.7279 -0.6021
vn -0.0835 -0.7373 0.6704
vn -0.6272 0.7788 0.0002
vn -0.8992 0.2168 -0.3800
vn -0.3144 0.4887 0.8138
vn 0.0671 -0.3944 -0.9165
vn -0.1041 0.6609 -0.7432
vn 0.9376 -0.1522 0.3128
vn -0.1858 -0.0722 0.9799
vn -0.5802 0.7996 -0.1545
vn -0.3856 0.6682 0.6363
vn 0.5544 -0.3699 -0.7456
vn -0.8684 0.4567 -0.1931
vn 0.3944 -0.1998 0.8969
vn -0.3316 0.9280 -0.1701
vn 0.1147 0.9778 0.1755
vn 0.6542 -0.6308 0.4173
vn 0.1454 0.9806 -0.1317
vn 0.2643 -0.8970 -0.3542
vn -0.1410 -0.9897 0.0267
vn -0.5738 0.2253 0.7874
vn -0.1944 0.5983 0.7774
vn -0.4866 0.6134 -0.6220
vn 0.1812 0.8712 0.4562
vn 0.3249 0.3453 0.8804
vn 0.3210 0.3375 0.8849
vn 0.3205 0.3365 0.8854
vn -0.6468 -0.5344 0.5441
vn -0.2265 0.9689 -0.0999
vn -0.5655 -0.7904 -0.2355
vn 0.2411 0.9686 -0.0601
vn -0.8174 0.4531 0.3558
vn -0.9288 0.1858 0.3206
vn 0.9221 0.3591 -0.1445
vn 0.2363 -0.4307 -0.8710
vn 0.8447 -0.1217 -0.5212
vn 0.6996 0.5891 0.4043
vn -0.5001 0.7114 -0.4938
vn 0.9829 -0.1686 -0.0747
vn -0.2007 -0.5803 -0.7893
vn -0.1660 -0.9276 -0.3348
vn -0.4177 -0.5218 -0.7438
vn -0.6015 -0.4243 0.6768
vn -0.1221 -0.9651 -0.2314
vn -0.6886 0.2998 -0.6602
vn -0.4865 -0.7885 0.3763
vn -0.4866 -0.7884 0.3764
vn 0.2143 0.9753 0.0532
vn 0.0001 0.7921 0.6104
vn 0.2911 -0.4864 0.8238
vn -0.1553 0.3917 -0.9069
vn 0.4751 -0.6003 -0.6434
vn 0.7968 -0.5221 -0.3043
vn -0.6559 0.7162 -0.2384
vn -0.6565 0.7157 -0.2384
vn -0.6570 0.7153 -0.2381
vn -0.8239 -0.2002 0.5302
vn 0.3990 0.4111 -0.8196
vn 0.0896 -0.6945 -0.7139
vn 0.6770 0.6833 0.2735
vn -0.4876 -0.8518 0.1918
vn -0.5197 -0.3483 -0.7801
vn 0.6775 -0.5469 -0.4918
vn 0.0435 0.8434 -0.5355
vn 0.5668 -0.1062 -0.8170
vn -0.2399 -0.1492 0.9593
vn -0.0259 0.2527 0.9672
vn -0.1310 0.8359 -0.5330
vn 0.4455 -0.8952 -0.0129
vn 0.0752 -0.3421 -0.9366
vn -0.3188 -0.9234 -0.2138
vn -0.2470 0.4606 -0.8525
vn -0.9182 -0.1028 -0.3825
vn 0.5499 0.5208 -0.6530
vn 0.1613 0.9762 -0.1450
vn 0.8272 0.3380 0.4489
vn 0.8549 -0.4158 -0.3104
vn 0.2319 0.5944 -0.7700
vn 0.9570 0.1307 0.2591
vn -0.8309 -0.4063 -0.3803
vn 0.3084 -0.0827 -0.9476
vn 0.7675 -0.4530 0.4535
vn -0.6551 -0.7550 0.0293
vn -0.2807 -0.3684 -0.8863
vn 0.4322 -0.7878 -0.4387
vn 0.2786 -0.1024 0.9549
vn 0.2783 -0.1023 0.9550
vn 0.0434 0.9846 -0.1693
vn -0.3785 0.8741 -0.3044
vn 0.2880 0.9416 -0.1745
vn 0.1653 0.0305 0.9858
vn 0.2675 -0.7253 0.6343
vn 0.1031 -0.9945 -0.0201
vn 0.9055 0.4085 -0.1152
vn 0.6843 -0.3522 0.6385
vn 0.6833 -0.3505 0.6405
vn 0.9301 0.1525 -0.3341
vn -0.7657 -0.1653 -0.6216
vn -0.2602 -0.1974 -0.9452
vn -0.1976 -0.8056 0.5585
vn 0.8647 -0.2171 -0.4530
vn 0.6853 0.7042 -0.1855
vn -0.5250 -0.2459 0.8148
vn -0.9030 0.4067 -0.1387
vn -0.9504 0.1218 -0.2862
vn -0.0362 -0.9911 0.1281
vn -0.2275 0.4790 0.8478
vn -0.0211 -0.6192 0.7849
vn 0.6493 0.6123 -0.4510
vn 0.7942 0.0377 -0.6065
vn -0.2689 0.9609 0.0664
vn 0.1128 0.0598 -0.9918
vn 0.0220 0.9667 -0.2551
vn -0.3235 -0.9462 0.0015
vn -0.2081 0.1592 0.9651
vn -0.8031 -0.2581 0.5371
vn 0.2558 -0.5285 0.8095
vn -0.4286 -0.8261 -0.3659
vn 0.3929 0.7356 0.5518
vn 0.0882 0.6195 0.7800
vn -0.9283 0.3147 -0.1981
vn -0.7682 0.6320 -0.1022
vn -0.6654 -0.5655 -0.4873
vn -0.1985 -0.5888 0.7835
vn 0.6357 -0.7594 0.1386
vn -0.2787 -0.4688 -0.8382
vn 0.0414 -0.7165 -0.6964
vn -0.7316 -0.6798 -0.0510
vn -0.2543 0.3128 0.9151
vn -0.8689 0.2548 -0.4244
vn 0.0028 -0.9708 -0.2399
vn -0.0076 -0.9997 0.0213
vn -0.8279 -0.4871 -0.2781
vn -0.3672 0.8923 0.2627
vn 0.8191 -0.5074 0.2676
vn -0.7664 0.4128 0.4921
vn -0.8122 -0.0981 0.5750
vn -0.2869 0.0257 -0.9576
vn 0.1606 -0.4176 0.8943
vn 0.1254 0.6724 -0.7295
vn 0.7326 0.5302 0.4268
vn -0.1710 -0.6842 0.7089
vn -0.2142 -0.5013 -0.8383
vn 0.9806 0.1932 -0.0327
vn 0.7174 -0.0125 -0.6966
vn -0.7235 -0.0909 0.6843
vn -0.9564 0.2414 -0.1642
vn -0.0284 0.9453 -0.3251
vn -0.1723 -0.7998 -0.5751
vn 0.5579 0.3430 0.7557
vn 0.0653 0.6993 0.7119
vn -0.4181 0.4077 0.8118
vn 0.2789 -0.1024 0.9548
vn -0.0375 -0.2743 0.9609
vn -0.5266 0.7139 0.4616
vn 0.2419 -0.8313 -0.5004
vn -0.3339 -0.6526 -0.6801
vn -0.1330 -0.2551 0.9577
vn -0.1110 0.8837 0.4548
vn 0.7570 0.0474 0.6517
vn 0.3970 -0.8531 0.3386
vn -0.6791 0.0658 -0.7311
vn -0.2836 -0.1368 -0.9491
vn -0.0297 -0.8525 0.5219
vn -0.6760 0.2574 0.6905
vn -0.9681 -0.1164 -0.2220
vn 0.6383 -0.7697 0.0015
vn 0.6121 -0.7182 -0.3310
vn 0.5747 0.4952 -0.6515
vn 0.5686 0.8212 -0.0475
vn 0.8618 0.4761 -0.1751
vn 0.0065 -0.1566 -0.9876
vn -0.4805 0.8746 -0.0655
vn 0.7600 -0.5878 0.2771
vn 0.4421 0.0440 -0.8959
vn -0.2894 0.2329 -0.9285
vn -0.9273 -0.1214 0.3542
vn 0.7618 -0.6446 0.0650
vn 0.2734 0.9569 -0.0980
vn 0.9947 -0.0420 0.0944
vn -0.7823 -0.3704 -0.5009
vn -0.3549 0.9349 0.0083
vn -0.3533 0.9354 0.0157
vn -0.3535 0.9353 0.0152
vn 0.9269 -0.3555 -0.1201
vn 0.5515 -0.4409 0.7081
vn -0.5883 -0.4748 0.6546
vn -0.0374 -0.9067 0.4200
vn -0.6200 0.0639 0.7820
vn -0.3803 0.3096 -0.8715
vn -0.3109 0.9202 0.2377
vn -0.7475 -0.5665 -0.3469
vn -0.5887 0.6172 -0.5221
vn 0.3966 0.0809 -0.9144
vn -0.8148 0.5409 -0.2088
vn -0.5237 -0.6112 -0.5934
vn 0.5810 0.0508 0.8123
vn 0.7003 -0.4743 -0.5335
vn -0.2155 -0.9646 0.1518
vn -0.3623 0.8114 -0.4587
vn 0.7734 0.2073 -0.5991
vn 0.3600 0.6005 0.7140
vn 0.1084 0.9732 -0.2029
vn 0.9920 0.1189 0.0418
vn -0.6426 0.4918 -0.5875
vn -0.6427 0.4916 -0.5876
vn 0.1648 -0.7914 0.5887
vn 0.2553 -0.3950 0.8825
vn 0.3045 -0.9512 0.0499
vn -0.8210 -0.2604 -0.5081
vn 0.9603 -0.2348 -0.1505
vn -0.6647 -0.2916 0.6878
vn -0.3800 0.0347 -0.9243
vn -0.7444 0.1950 0.6386
vn -0.1600 -0.4432 -0.8820
vn -0.1169 0.7220 0.6820
vn -0.8181 0.2909 0.4961
vn -0.4117 -0.0363 0.9106
vn 0.0799 0.9259 -0.3692
vn -0.2584 0.1018 -0.9607
vn 0.2175 0.8698 0.4429
vn -0.0967 0.9413 -0.3235
vn 0.7077 0.6195 -0.3398
vn -0.5624 -0.8037 -0.1943
vn -0.8968 0.3075 0.3182
vn 0.1610 0.1114 -0.9806
vn 0.4491 -0.8934 0.0153
vn 0.8958 -0.0358 0.4430
vn 0.3572 0.9184 0.1703
vn 0.6089 -0.7427 0.2787
vn 0.0791 0.9515 -0.2974
vn 0.1754 -0.4827 -0.8580
vn 0.1754 -0.4827 -0.8581
vn 0.1758 -0.4826 -0.8580
vn -0.9999 0.0163 0.0038
vn 0.5333 -0.8273 -0.1767
vn 0.8622 0.0033 -0.5065
vn 0.2104 -0.1866 0.9596
vn -0.2226 0.8733 0.4334
vn -0.5720 -0.7058 0.4178
vn -0.4469 0.1063 0.8882
vn -0.2703 0.1136 0.9560
vn -0.3564 0.8576 0.3709
vn 0.8325 0.5432 0.1090
vn 0.4957 0.2013 -0.8448
vn -0.6982 -0.0896 -0.7103
vn -0.6083 -0.0405 -0.7927
vn -0.8277 -0.0660 -0.5573
vn 0.5125 -0.6636 0.5450
vn 0.4838 -0.1977 0.8526
vn 0.1584 0.7726 0.6148
vn -0.0445 -0.9770 -0.2084
vn 0.0680 -0.9967 0.0433
vn 0.2285 -0.9054 0.3579
vn 0.0475 0.1024 0.9936
vn -0.5998 -0.7970 -0.0705
vn 0.6076 -0.7943 0.0048
vn -0.2044 -0.6088 0.7665
vn -0.9686 -0.1569 -0.1928
vn 0.0763 -0.7520 0.6547
vn -0.2329 -0.3915 0.8902
vn 0.7024 -0.7025 -0.1146
vn 0.5514 0.8253 0.1217
vn -0.6699 -0.2570 -0.6966
vn -0.5669 0.3467 -0.7473
vn -0.5662 0.3471 -0.7476
vn -0.5674 0.3463 -0.7471
vn 0.5358 0.0934 -0.8392
vn 0.6711 -0.7379 -0.0724
vn 0.1312 -0.7921 -0.5961
vn 0.6745 -0.4578 0.5792
vn -0.3373 -0.5970 0.7279
vn -0.2655 0.9425 0.2028
vn -0.5485 -0.7821 0.2958
vn 0.9677 0.1220 -0.2207
vn 0.8372 0.3497 0.4205
vn 0.3594 -0.8774 0.3178
vn 0.8877 0.0911 -0.4513
vn 0.2763 -0.5869 -0.7610
vn -0.5324 0.0881 -0.8419
vn 0.3415 0.3533 -0.8709
vn 0.1127 -0.9734 0.1993
vn -0.9654 0.2291 0.1246
vn 0.0374 0.8156 -0.5774
vn 0.6400 0.6309 0.4386
vn -0.4778 0.4114 0.7762
vn -0.2665 -0.1508 0.9520
vn 0.4642 0.7083 0.5318
vn -0.6982 -0.6753 0.2378
vn -0.3065 -0.8385 -0.4506
vn -0.9916 0.0209 -0.1277
vn -0.6004 0.5218 -0.6060
vn 0.7944 0.5669 0.2181
vn -0.9901 0.0811 0.1148
vn 0.9347 -0.0389 0.3534
vn -0.9076 0.4073 -0.1019
vn 0.4242 0.8682 -0.2576
vn -0.9267 0.2364 0.2922
vn -0.3597 0.8766 -0.3196
vn 0.1101 0.4830 -0.8687
vn 0.7699 0.6313 -0.0931
vn -0.5449 0.0190 0.8383
vn -0.5854 -0.6568 0.4752
vn 0.8168 0.5610 -0.1345
vn 0.6849 0.6381 -0.3517
vn -0.1350 0.8051 -0.5776
vn -0.7033 -0.1201 0.7007
vn 0.1501 0.7289 0.6680
vn -0.0290 0.9362 -0.3504
vn -0.4565 0.7270 -0.5129
vn 0.3913 -0.1271 -0.9115
vn 0.9956 -0.0508 -0.0790
vn 0.4262 -0.8723 -0.2399
vn 0.6883 0.3599 0.6298
vn 0.7303 -0.6610 0.1725
vn -0.8252 -0.4305 0.3658
vn -0.2738 -0.7056 0.6536
vn 0.5206 -0.5243 -0.6739
vn 0.1274 0.9876 -0.0922
vn 0.1252 0.9878 -0.0925
vn 0.1257 0.9878 -0.0924
vn 0.2675 -0.9632 -0.0268
vn 0.8669 0.2930 -0.4033
vn 0.0725 0.9739 -0.2151
vn 0.8175 -0.3039 -0.4893
vn -0.7161 -0.6800 -0.1574
vn 0.6043 -0.7889 -0.1118
vn -0.5675 0.3463 -0.7470
vn 0.3704 -0.7632 -0.5295
vn -0.3186 -0.9371 -0.1425
vn -0.7409 0.0785 0.6671
vn 0.5241 0.2791 -0.8047
vn -0.3770 0.6992 0.6075
vn -0.1413 0.4479 0.8828
vn -0.8189 0.5725 -0.0402
vn 0.0399 0.4500 0.8921
vn 0.4564 -0.7559 -0.4693
vn -0.9162 -0.2775 -0.2890
vn -0.1176 -0.1046 -0.9875
vn 0.5390 -0.1334 0.8317
vn -0.7572 0.5073 -0.4115
vn -0.7294 0.6037 0.3217
vn -0.1551 -0.9750 0.1593
vn -0.0118 -0.5823 -0.8129
vn 0.6320 -0.6657 -0.3968
vn -0.1436 0.9894 0.0229
vn 0.4571 0.8833 0.1039
vn 0.9338 -0.2069 -0.2919
vn -0.7692 -0.6052 0.2052
vn -0.1202 -0.4522 0.8838
vn -0.0773 0.5928 0.8016
vn 0.4400 0.7495 -0.4946
vn -0.7937 0.5272 0.3037
vn -0.0192 0.9832 -0.1817
vn -0.1189 0.5522 -0.8252
vn -0.2708 -0.9519 0.1433
vn -0.7960 -0.5448 0.2639
vn -0.4473 -0.0789 0.8909
vn 0.6152 0.7396 0.2731
vn 0.1452 0.9883 0.0474
vn -0.0538 -0.7234 0.6883
vn -0.2307 -0.6425 -0.7308
vn -0.3251 0.5909 -0.7383
vn 0.8593 0.0445 0.5095
vn 0.1099 -0.9900 -0.0885
vn -0.0057 -0.9766 0.2148
vn 0.1318 0.4678 -0.8740
vn 0.0788 0.9462 -0.3138
vn -0.4404 -0.5634 -0.6991
vn -0.6879 -0.7134 0.1337
vn -0.0987 0.6472 -0.7559
vn 0.7840 -0.0676 0.6170
vn -0.2884 -0.7114 -0.6410
vn -0.6430 0.4907 -0.5880
vn -0.8289 -0.4780 0.2905
vn -0.6343 0.5525 0.5407
vn -0.8560 0.5167 -0.0184
vn -0.1370 0.9177 0.3728
vn -0.6117 0.2632 0.7460
vn -0.1457 0.3749 0.9156
vn -0.1178 -0.9930 -0.0046
vn -0.1983 0.1823 0.9630
vn -0.4759 0.7400 0.4753
vn -0.7163 0.0433 0.6965
vn 0.2133 -0.7340 0.6448
vn -0.6733 0.5067 -0.5385
vn -0.5455 -0.2404 0.8029
vn -0.1338 0.1282 -0.9827
vn 0.5353 -0.1255 -0.8353
vn -0.0627 -0.1552 -0.9859
vn -0.1218 -0.9785 0.1666
vn -0.5407 -0.7002 -0.4662
vn 0.6407 0.2988 -0.7072
vn -0.6217 -0.6979 0.3556
vn 0.9111 0.2185 0.3494
vn 0.3626 -0.2617 -0.8944
vn 0.5404 0.5987 0.5913
vn 0.2624 0.9639 -0.0450
vn -0.2789 0.9175 -0.2837
vn 0.5408 0.1232 -0.8321
vn -0.1491 -0.5766 0.8033
vn 0.7507 -0.1495 -0.6435
vn 0.9283 -0.2133 -0.3044
vn 0.4161 -0.7929 0.4453
vn -0.2414 -0.6970 0.6752
vn 0.0031 0.6347 -0.7728
vn -0.2834 0.8277 -0.4843
vn 0.4890 -0.4709 -0.7343
vn -0.8273 0.5383 0.1608
vn 0.5574 -0.7976 0.2303
vn -0.8124 0.0332 -0.5822
vn -0.4373 -0.8993 0.0079
vn 0.8887 -0.2844 0.3597
vn 0.5242 -0.7674 -0.3692
vn -0.7064 -0.4093 -0.5774
vn -0.5037 -0.7723 0.3870
vn 0.4915 0.7918 0.3627
vn 0.5864 -0.8097 0.0235
vn 0.6932 -0.7029 0.1594
vn -0.0035 -0.8791 0.4766
vn 0.4359 0.6601 -0.6117
vn -0.2946 -0.8570 -0.4228
vn 0.4132 0.7345 0.5384
vn -0.6791 0.1911 -0.7087
vn -0.4806 0.8047 0.3484
vn 0.2711 0.7031 -0.6574
vn 0.8434 -0.2405 0.4805
vn 0.4725 -0.8778 -0.0790
vn -0.3840 -0.4583 0.8016
vn -0.8632 -0.4778 -0.1630
vn -0.7040 -0.1207 -0.6999
vn 0.4144 0.1863 0.8908
vn -0.0800 0.9729 0.2170
vn 0.8067 0.4645 0.3652
vn -0.0941 0.9949 -0.0350
vn 0.0418 0.1809 0.9826
vn 0.5755 0.8174 -0.0251
vn -0.3840 -0.8756 0.2930
vn -0.8872 0.4403 0.1382
vn -0.1510 0.7605 0.6315
vn 0.1775 -0.9812 -0.0762
vn 0.6252 -0.5125 0.5886
vn 0.6832 -0.3503 0.6408
vn -0.3848 0.2882 0.8769
vn 0.0871 -0.7174 -0.6912
vn 0.3379 0.6878 0.6424
vn 0.1182 0.4380 -0.8912
vn -0.8220 -0.5677 0.0437
vn -0.0134 -0.4906 -0.8713
vn 0.6942 0.6638 0.2784
vn -0.6564 0.1630 -0.7366
vn -0.6797 -0.7192 0.1438
vn 0.3563 -0.8530 0.3813
vn -0.1706 -0.3254 -0.9301
vn -0.0669 0.9756 0.2093
vn 0.1186 -0.9554 -0.2706
vn 0.0160 0.9407 -0.3388
vn -0.1983 0.9741 -0.1086
vn 0.2081 -0.9772 0.0415
vn -0.9984 0.0389 -0.0421
vn -0.6194 0.5688 0.5411
vn -0.6190 -0.1253 0.7753
vn -0.6466 0.7241 -0.2400
vn 0.2285 -0.3204 -0.9193
vn 0.0039 0.9085 0.4178
vn 0.6448 0.7582 -0.0964
vn 0.4060 -0.3014 -0.8627
vn 0.4668 -0.8218 -0.3267
vn 0.8621 -0.5009 -0.0765
vn -0.8246 0.1702 -0.5395
vn -0.3134 -0.8478 -0.4278
vn 0.3699 -0.6413 0.6722
vn -0.0862 -0.4560 -0.8858
vn -0.4328 -0.8297 -0.3525
vn -0.3710 0.6128 -0.6978
vn -0.2326 0.4607 -0.8565
vn -0.7101 0.4339 0.5546
vn -0.1538 0.9765 -0.1508
vn 0.1616 0.8651 -0.4749
vn -0.3005 -0.7451 0.5955
vn -0.8874 0.3053 -0.3455
vn -0.0265 0.9771 0.2113
vn -0.3223 0.9144 -0.2451
vn -0.9419 -0.1460 0.3027
vn -0.3788 0.8621 -0.3367
vn -0.2019 -0.8966 -0.3941
vn -0.8512 -0.5138 -0.1072
vn 0.1718 -0.4823 -0.8590
vn 0.0996 -0.8890 -0.4469
vn 0.3010 -0.7331 -0.6099
vn 0.1086 -0.9923 0.0601
vn -0.1870 -0.7303 -0.6570
vn 0.2455 -0.8762 -0.4147
vn 0.7389 -0.0315 -0.6731
vn 0.4405 -0.0940 -0.8928
vn -0.6069 -0.0064 -0.7948
vn -0.2500 0.7909 0.5585
vn 0.3666 0.7775 -0.5110
vn -0.3041 -0.5134 0.8024
vn -0.4381 -0.8931 0.1022
vn 0.3067 -0.9429 0.1298
vn -0.7682 0.5707 -0.2900
vn 0.6222 0.7521 -0.2172
vn 0.4350 0.4010 -0.8062
vn -0.5759 0.7597 -0.3020
vn 0.1293 -0.8663 -0.4825
vn 0.1227 -0.7772 0.6172
vn -0.4932 -0.2435 -0.8352
vn -0.4864 -0.7886 0.3762
vn -0.2425 0.7961 -0.5545
vn -0.9447 0.0367 -0.3259
vn -0.6284 0.5903 -0.5065
vn 0.2941 -0.5907 -0.7514
vn 0.6968 -0.7172 -0.0130
vn -0.1227 -0.0880 -0.9885
vn -0.0815 0.4921 -0.8667
vn 0.1737 -0.9663 -0.1900
vn -0.3550 0.9349 0.0077
vn 0.1528 -0.2917 -0.9442
vn -0.3671 -0.3475 0.8628
vn 0.2829 -0.3618 0.8883
vn 0.1280 0.9875 -0.0921
vn 0.7860 -0.0088 0.6181
vn 0.7340 0.6420 0.2216
vn -0.9441 0.3294 0.0150
vn -0.9696 0.2293 -0.0849
vn -0.0706 -0.8461 0.5284
vn 0.3253 0.3459 0.8801
vn -0.3335 0.5398 -0.7729
vn -0.8826 -0.2227 -0.4140
vn -0.0849 0.9616 0.2612
vn -0.9545 0.2976 0.0204
vn -0.1579 -0.8601 -0.4850
vn 0.6902 0.4564 0.5615
vn 0.6976 0.4344 0.5698
vn 0.2771 0.8977 0.3426
vn 0.0813 -0.1839 0.9796
vn 0.8082 0.2423 0.5367
vn 0.1544 0.4676 -0.8704
vn -0.0733 0.6686 0.7400
vn 0.6477 0.5360 -0.5415
vn 0.2153 0.9699 -0.1139
vn -0.3603 0.3021 -0.8826
vn -0.0793 0.8641 -0.4970
vn 0.2142 0.1626 0.9632
vn 0.1468 -0.8206 -0.5523
vn -0.5359 -0.1670 -0.8276
vn 0.3136 0.6906 -0.6518
vn 0.6636 -0.0362 0.7472
vn -0.5398 -0.0263 0.8414
vn 0.9314 -0.3552 0.0796
vn -0.0240 -0.4388 0.8983
vn 0.7155 0.6508 0.2540
vn 0.3060 0.5834 -0.7524
vn -0.4235 0.7633 0.4878
vn -0.2862 -0.6746 0.6805
vn -0.6081 -0.3478 -0.7136
vn -0.5230 0.8315 0.1870
vn 0.7233 -0.2403 0.6474
vn 0.1046 -0.9911 -0.0826
vn 0.8394 0.1984 -0.5060
vn 0.8330 -0.4470 0.3262
vn 0.8086 0.4648 -0.3607
vn -0.3042 -0.4108 -0.8595
vn 0.3699 0.0666 -0.9267
usemtl Mat.7
s 1
f 1//1 2//1 3//1
f 4//2 5//2 6//2
f 7//3 8//3 9//3
f 10//4 11//4 7//4
f 12//5 13//5 4//5
f 8//6 2//6 14//6
f 15//7 2//7 16//7
f 2//8 7//8 16//8
f 12//9 17//9 11//9
f 11//10 16//10 7//10
f 18//11 2//11 15//11
f 12//12 4//12 9//12
f 12//13 11//13 19//13
f 20//14 19//14 5//14
f 5//15 10//15 6//15
f 3//16 21//16 1//16
f 1//17 17//17 14//17
f 17//18 1//18 16//18
f 15//19 1//19 21//19
f 13//20 20//20 4//20
f 11//21 10//21 19//21
f 2//22 8//22 7//22
f 8//23 17//23 12//23
f 9//24 6//24 10//24
f 6//25 9//25 4//25
f 12//26 19//26 13//26
f 3//27 2//27 18//27
f 10//28 7//28 9//28
f 1//29 15//29 16//29
f 9//30 8//30 12//30
f 17//31 8//31 14//31
f 17//32 16//32 11//32
f 5//33 4//33 20//33
f 20//34 13//34 19//34
f 5//35 19//35 10//35
usemtl Red
f 22//36 23//36 24//36
f 25//37 26//37 27//37
f 28//38 29//38 30//38
f 31//39 32//39 33//39
f 34//40 35//40 36//40
f 37//41 38//41 39//41
f 40//42 41//42 42//42
f 43//43 44//43 45//43
f 46//44 47//44 48//44
f 49//45 50//45 51//45
f 52//46 53//46 54//46
f 55//47 56//47 57//47
f 58//48 59//48 60//48
f 61//49 62//49 63//49
f 64//50 65//50 66//50
f 67//51 68//51 69//51
f 24//52 70//52 71//52
f 72//53 67//53 73//53
f 74//54 75//54 76//54
f 77//55 78//55 79//55
f 80//56 81//56 82//56
f 83//57 84//58 85//59
f 86//60 87//60 88//60
f 89//61 90//62 91//63
f 64//64 66//64 92//64
f 93//65 94//65 95//65
f 96//66 97//66 98//66
f 99//67 100//67 23//67
f 81//68 101//68 82//68
f 102//69 23//69 100//69
f 103//70 104//70 105//70
f 33//71 106//72 31//73
f 107//74 108//74 30//74
f 109//75 110//75 111//75
f 112//76 113//76 114//76
f 115//77 116//77 117//77
f 118//78 119//78 45//78
f 120//79 121//79 122//79
f 123//80 124//80 125//80
f 126//81 42//81 127//81
f 128//82 129//82 130//82
f 131//83 132//84 133//85
f 134//86 78//86 135//86
f 136//87 137//87 138//87
f 62//88 139//88 140//88
f 139//89 141//89 140//89
f 142//90 36//91 143//92
f 144//93 145//93 146//93
f 147//94 148//94 149//94
f 150//95 151//95 152//95
f 153//96 154//96 155//96
f 156//97 157//97 158//97
f 159//98 160//98 161//98
f 162//99 163//99 86//99
f 111//100 110//100 164//100
f 165//101 166//101 167//101
f 168//102 169//103 170//104
f 165//105 120//105 171//105
f 172//106 173//106 174//106
f 175//107 28//107 176//107
f 177//108 178//108 179//108
f 122//109 121//109 165//109
f 180//110 181//110 182//110
f 183//111 184//111 185//111
f 117//112 186//112 173//112
f 187//113 188//113 189//113
f 119//114 118//114 190//114
f 95//115 191//115 192//115
f 193//116 194//116 195//116
f 196//117 150//117 197//117
f 198//118 51//118 199//118
f 56//119 200//119 57//119
f 152//120 201//120 202//120
f 203//121 182//121 204//121
f 205//122 206//122 85//122
f 207//123 146//123 208//123
f 209//124 210//124 211//124
f 158//125 212//125 213//125
f 214//126 81//126 215//126
f 67//127 72//127 68//127
f 112//128 216//128 217//128
f 218//129 211//129 210//129
f 219//130 220//130 221//130
f 174//131 222//131 132//131
f 47//132 161//132 48//132
f 223//133 44//133 43//133
f 224//134 225//134 226//134
f 227//135 228//135 63//135
f 229//136 230//136 189//136
f 75//137 176//137 231//137
f 31//138 232//139 233//140
f 150//141 234//141 151//141
f 235//142 68//142 72//142
f 24//143 102//143 70//143
f 155//144 154//144 236//144
f 181//145 79//146 134//147
f 72//148 73//148 237//148
f 116//149 115//149 238//149
f 51//150 50//150 239//150
f 240//151 86//151 88//151
f 93//152 187//152 110//152
f 241//153 225//153 242//153
f 185//154 243//154 244//154
f 245//155 246//155 247//155
f 248//156 160//156 159//156
f 248//157 249//157 250//157
f 201//158 203//158 204//158
f 251//159 252//159 253//159
f 254//160 142//160 143//160
f 109//161 190//161 110//161
f 194//162 255//162 195//162
f 43//163 256//163 257//163
f 258//164 259//164 260//164
f 261//165 95//165 94//165
f 188//166 187//166 93//166
f 262//167 243//167 185//167
f 263//168 264//168 152//168
f 265//169 266//169 267//169
f 60//170 268//170 269//170
f 270//171 221//171 133//171
f 77//172 22//172 271//172
f 155//173 236//173 242//173
f 272//174 66//174 273//174
f 274//175 57//175 275//175
f 276//176 165//176 277//176
f 153//177 276//177 277//177
f 278//178 279//178 103//178
f 267//179 280//179 265//179
f 70//180 281//180 282//180
f 283//181 251//181 253//181
f 284//182 285//182 286//182
f 287//183 195//183 255//183
f 288//184 48//184 161//184
f 138//185 218//185 136//185
f 289//186 125//186 290//186
f 291//187 292//187 293//187
f 294//188 257//188 256//188
f 268//189 153//189 269//189
f 295//190 186//190 296//190
f 297//191 114//191 298//191
f 126//192 40//192 42//192
f 228//193 299//193 300//193
f 282//194 281//194 196//194
f 242//195 236//195 241//195
f 183//196 301//196 184//196
f 131//197 221//197 220//197
f 218//198 210//198 262//198
f 302//199 143//200 303//201
f 287//202 304//202 42//202
f 305//203 306//203 307//203
f 308//204 107//205 309//206
f 310//207 183//207 185//207
f 52//208 144//208 26//208
f 306//209 207//209 311//209
f 312//210 313//210 314//210
f 208//211 315//211 316//211
f 317//212 318//212 143//212
f 169//103 319//213 170//104
f 118//214 44//214 315//214
f 320//215 321//215 322//215
f 246//216 245//216 90//216
f 323//217 324//218 215//219
f 82//220 297//220 325//220
f 23//221 102//221 24//221
f 326//222 298//223 113//224
f 278//225 177//225 179//225
f 327//226 328//226 329//226
f 166//227 171//227 235//227
f 209//228 330//228 331//228
f 288//229 160//229 250//229
f 332//230 333//230 334//230
f 335//231 336//231 337//231
f 304//232 338//232 42//232
f 54//233 242//233 225//233
f 339//234 120//234 284//234
f 340//235 341//235 342//235
f 84//236 252//236 343//236
f 52//237 26//237 25//237
f 65//238 96//238 333//238
f 18//239 15//239 325//239
f 344//240 265//240 280//240
f 102//241 100//241 345//241
f 346//242 170//242 319//242
f 196//243 197//243 282//243
f 230//244 140//244 347//244
f 348//245 349//245 350//245
f 93//246 110//246 46//246
f 188//247 95//248 229//248
f 187//249 189//249 164//249
f 351//250 214//250 352//250
f 353//251 299//251 354//251
f 355//252 73//252 67//252
f 32//253 128//253 130//253
f 30//254 329//254 107//254
f 345//255 37//255 39//255
f 131//256 180//256 132//256
f 356//257 120//257 339//257
f 169//258 357//258 319//258
f 97//259 64//259 92//259
f 358//260 359//260 360//260
f 361//261 307//261 306//261
f 230//262 346//262 362//262
f 363//263 289//263 290//263
f 364//264 365//264 366//264
f 157//265 367//265 368//265
f 153//266 155//266 269//266
f 238//267 369//267 116//267
f 370//268 233//268 232//268
f 331//269 254//269 302//269
f 371//270 372//270 296//270
f 295//271 296//271 372//271
f 239//272 373//272 199//272
f 374//273 224//273 315//273
f 357//274 169//274 375//274
f 356//275 376//275 120//275
f 272//276 85//277 104//278
f 55//279 57//279 377//279
f 61//280 228//280 350//280
f 143//281 318//281 378//281
f 249//282 379//282 250//282
f 380//283 381//283 74//283
f 215//219 324//218 382//284
f 382//285 156//285 123//285
f 346//286 383//286 362//286
f 347//287 141//287 164//287
f 55//288 377//288 384//288
f 269//289 155//289 53//289
f 102//290 345//290 281//290
f 48//291 93//291 46//291
f 188//292 93//292 95//292
f 39//293 41//293 40//293
f 301//294 322//294 184//294
f 385//295 127//295 386//295
f 98//296 299//296 353//296
f 320//297 286//297 321//297
f 327//298 30//298 258//298
f 356//299 193//299 99//299
f 387//300 179//300 303//300
f 345//301 193//301 37//301
f 35//302 388//302 294//302
f 101//303 214//303 351//303
f 389//304 246//304 90//304
f 164//305 189//305 347//305
f 54//306 374//306 145//306
f 234//307 162//307 240//307
f 189//308 188//308 229//308
f 302//309 303//309 178//309
f 221//310 131//310 133//310
f 74//311 381//311 390//311
f 214//312 289//312 352//312
f 203//313 180//313 182//313
f 177//314 105//315 206//316
f 391//317 59//317 284//317
f 392//318 52//318 246//318
f 393//319 394//319 316//319
f 364//320 338//320 304//320
f 73//321 355//321 395//321
f 150//322 162//322 234//322
f 85//323 272//323 396//323
f 333//324 96//324 334//324
f 34//325 36//325 142//325
f 397//326 34//326 91//326
f 398//327 392//327 246//327
f 137//328 285//328 399//328
f 265//329 344//329 219//329
f 132//330 180//330 172//330
f 400//331 200//331 56//331
f 401//332 245//332 199//332
f 109//333 341//333 119//333
f 365//334 301//334 183//334
f 342//335 164//335 141//335
f 171//336 402//336 235//336
f 79//337 78//337 134//337
f 101//338 81//338 214//338
f 376//339 99//339 22//339
f 274//340 83//340 396//340
f 346//341 319//341 383//341
f 403//342 322//342 136//342
f 245//343 91//343 90//343
f 209//344 398//344 389//344
f 220//345 359//345 358//345
f 236//346 154//346 237//346
f 363//347 290//347 260//347
f 347//348 189//348 230//348
f 122//349 391//349 284//349
f 326//350 113//350 404//350
f 405//351 200//351 400//351
f 281//352 163//352 196//352
f 148//353 147//353 406//353
f 278//354 407//355 279//356
f 214//357 382//357 123//357
f 408//358 230//358 362//358
f 226//359 335//359 337//359
f 283//360 253//360 275//360
f 184//361 322//361 403//361
f 176//362 371//362 175//362
f 205//363 343//363 409//363
f 222//364 295//364 410//364
f 375//365 231//365 411//365
f 77//366 271//366 78//366
f 412//367 223//367 257//367
f 250//368 261//368 288//368
f 226//369 241//369 335//369
f 59//370 399//370 285//370
f 413//371 414//371 388//371
f 415//372 103//372 279//372
f 358//373 360//373 69//373
f 414//374 412//374 257//374
f 140//375 141//375 347//375
f 416//376 280//376 336//376
f 207//377 306//377 146//377
f 88//378 417//378 418//378
f 106//379 15//379 21//379
f 410//380 390//380 381//380
f 408//381 140//381 230//381
f 52//382 54//382 145//382
f 369//383 217//383 289//383
f 295//384 372//385 390//386
f 363//387 260//387 116//387
f 312//388 107//388 419//388
f 358//389 79//146 181//145
f 225//390 241//390 226//390
f 273//391 66//391 384//391
f 108//392 28//392 30//392
f 333//393 420//393 65//393
f 74//394 421//394 380//394
f 15//395 106//395 80//395
f 352//396 289//396 217//396
f 300//397 299//397 98//397
f 247//398 25//398 422//398
f 373//399 423//399 149//399
f 224//400 424//400 425//400
f 30//401 327//401 329//401
f 299//402 228//402 426//402
f 372//403 371//403 390//403
f 427//404 291//404 343//404
f 158//405 157//405 212//405
f 120//406 376//406 171//406
f 267//407 380//407 280//407
f 106//408 232//139 31//138
f 175//409 371//409 296//409
f 184//410 403//410 185//410
f 353//411 354//411 308//411
f 355//412 360//412 395//412
f 428//413 125//413 328//413
f 129//414 117//414 263//414
f 153//415 277//415 154//415
f 32//416 130//416 234//416
f 209//417 389//417 429//417
f 413//418 393//418 412//418
f 76//419 75//419 430//419
f 325//420 80//420 82//420
f 21//421 3//421 431//421
f 432//422 117//422 173//422
f 181//423 131//424 220//425
f 93//426 48//426 94//426
f 290//427 125//427 428//427
f 306//428 27//428 26//428
f 130//429 151//429 234//429
f 314//430 411//430 312//430
f 357//431 383//431 319//431
f 113//432 298//432 114//432
f 243//433 427//433 244//433
f 301//434 433//434 255//434
f 434//435 202//435 204//435
f 435//436 334//436 436//436
f 194//437 356//437 339//437
f 293//438 437//438 438//438
f 330//439 142//439 254//439
f 438//440 177//440 439//440
f 94//441 288//441 261//441
f 330//442 89//442 142//442
f 300//443 98//443 97//443
f 245//444 247//445 198//444
f 263//446 151//446 130//446
f 440//447 173//447 186//447
f 335//448 236//448 73//448
f 441//449 55//449 384//449
f 136//450 218//450 262//450
f 285//451 137//451 321//451
f 329//452 436//453 309//454
f 229//455 192//455 170//455
f 442//456 386//456 400//456
f 292//457 210//457 437//457
f 351//458 216//458 114//458
f 109//459 119//459 190//459
f 439//460 177//314 206//316
f 321//461 137//461 136//461
f 418//462 417//462 156//462
f 365//463 183//463 366//463
f 248//464 280//464 380//464
f 266//465 221//465 270//465
f 156//466 158//466 213//466
f 60//467 269//467 392//467
f 252//468 427//468 343//468
f 145//469 208//469 146//469
f 441//470 384//470 212//470
f 415//471 62//471 61//471
f 18//472 298//223 326//222
f 289//473 214//473 123//473
f 271//474 71//474 135//474
f 321//475 286//475 285//475
f 386//476 442//476 417//476
f 22//477 99//477 23//477
f 443//478 407//478 139//478
f 444//479 251//479 283//479
f 165//480 167//480 277//480
f 111//481 341//481 109//481
f 205//482 409//482 206//482
f 398//483 211//483 138//483
f 395//484 359//484 344//485
f 214//486 215//486 382//486
f 124//487 435//487 328//487
f 404//488 369//488 238//488
f 359//489 219//489 344//489
f 361//490 311//490 393//490
f 90//491 89//491 389//491
f 281//492 345//492 39//492
f 72//493 237//494 166//494
f 195//495 38//495 37//495
f 103//496 415//496 349//496
f 84//58 205//497 85//59
f 118//498 425//498 47//498
f 255//499 320//499 301//499
f 112//500 369//500 113//500
f 379//501 261//501 250//501
f 308//502 354//502 445//502
f 426//503 228//503 227//503
f 446//504 423//504 361//504
f 410//505 295//384 390//386
f 424//506 226//506 337//506
f 40//507 385//507 86//507
f 433//508 304//508 287//508
f 260//509 290//509 258//509
f 283//510 275//510 57//510
f 447//511 404//511 115//511
f 119//512 378//512 318//512
f 381//513 267//513 266//513
f 95//248 192//514 229//248
f 236//515 335//515 241//515
f 303//516 143//516 387//516
f 203//517 264//517 432//517
f 132//518 172//518 174//518
f 445//519 354//519 426//519
f 309//206 107//205 329//520
f 387//521 407//521 179//521
f 448//522 424//522 159//522
f 34//523 397//523 35//523
f 438//524 439//524 409//524
f 311//525 207//525 393//525
f 341//526 111//526 342//526
f 410//527 381//527 270//527
f 449//528 98//528 353//528
f 429//529 89//529 330//529
f 246//530 52//530 247//530
f 407//531 340//531 139//531
f 259//532 258//532 29//532
f 391//533 122//533 276//533
f 375//534 411//534 314//534
f 168//535 170//535 192//535
f 273//536 274//536 396//536
f 336//537 335//537 416//537
f 367//538 157//538 417//538
f 71//539 434//539 204//539
f 424//540 448//540 425//540
f 293//541 438//541 409//541
f 345//542 100//542 193//542
f 365//543 364//543 304//543
f 450//544 168//544 192//544
f 445//545 426//545 227//545
f 324//546 418//546 382//546
f 394//547 208//547 316//547
f 182//548 181//548 134//548
f 173//549 440//549 174//549
f 371//550 75//550 390//550
f 360//551 359//484 395//484
f 280//552 451//552 336//552
f 175//553 29//553 28//553
f 51//554 239//554 199//554
f 438//555 302//555 178//555
f 248//556 451//556 280//556
f 186//557 452//557 453//557
f 68//558 77//558 79//558
f 35//559 294//559 454//559
f 348//560 350//560 92//560
f 396//561 83//561 85//561
f 374//562 225//562 224//562
f 430//563 231//563 375//563
f 62//564 408//564 63//564
f 147//565 455//565 35//565
f 399//566 58//566 138//566
f 127//567 385//567 126//567
f 162//568 150//568 196//568
f 456//569 281//569 39//569
f 253//570 252//570 275//570
f 428//571 328//571 327//571
f 153//572 391//572 276//572
f 405//573 366//573 444//573
f 384//574 377//574 273//574
f 346//575 229//575 170//575
f 391//576 268//576 59//576
f 369//577 289//577 363//577
f 376//578 356//578 99//578
f 279//579 407//579 443//579
f 290//580 428//581 327//582
f 286//583 339//583 284//583
f 236//584 237//584 73//584
f 288//585 94//585 48//585
f 315//586 224//586 425//586
f 76//587 430//587 450//587
f 420//588 66//588 65//588
f 32//589 215//589 33//589
f 407//590 387//590 340//590
f 370//591 431//591 3//591
f 405//592 444//592 200//592
f 309//593 353//593 308//593
f 178//594 303//594 179//594
f 69//595 79//595 358//595
f 322//596 321//596 136//596
f 118//597 45//597 44//597
f 124//598 332//598 435//598
f 42//599 41//599 287//599
f 180//600 203//600 172//600
f 240//601 88//601 323//601
f 99//602 193//602 100//602
f 98//603 449//604 96//604
f 446//605 361//605 393//605
f 335//606 73//606 416//606
f 392//607 269//607 53//607
f 279//608 443//608 415//608
f 286//609 194//609 339//609
f 191//610 95//610 261//610
f 396//611 272//611 273//611
f 169//612 430//612 375//612
f 343//613 293//613 409//613
f 440//614 186//614 295//614
f 375//615 314//615 357//615
f 380//616 421//616 249//616
f 370//617 404//617 447//617
f 273//618 377//618 274//618
f 117//619 432//619 264//619
f 123//620 457//620 124//620
f 456//621 40//621 163//621
f 341//622 387//622 378//622
f 313//623 357//623 314//623
f 200//624 283//624 57//624
f 35//625 454//625 36//625
f 22//626 402//626 171//626
f 263//627 152//627 151//627
f 294//628 256//628 454//628
f 88//629 418//629 324//629
f 427//630 292//631 291//632
f 362//633 458//633 408//633
f 361//634 239//634 50//634
f 433//635 287//635 255//635
f 395//636 344//636 416//636
f 453//637 259//637 459//637
f 422//638 25//638 307//638
f 421//639 74//639 76//639
f 380//640 267//640 381//640
f 459//641 259//641 29//641
f 102//642 281//642 70//642
f 338//643 405//643 400//643
f 349//644 348//644 104//644
f 348//645 272//645 104//645
f 415//646 61//646 349//646
f 413//647 412//647 414//647
f 360//648 355//648 67//648
f 297//649 82//649 101//649
f 317//650 143//92 36//91
f 45//651 256//651 43//651
f 225//652 374//652 54//652
f 265//653 219//653 266//653
f 27//654 307//654 25//654
f 149//655 455//655 147//655
f 455//656 423//656 388//656
f 62//657 140//657 408//657
f 199//658 373//658 401//658
f 248//659 159//659 451//659
f 58//660 399//660 59//660
f 152//661 197//661 150//661
f 103//662 105//662 278//662
f 96//663 65//664 64//665
f 405//666 364//666 366//666
f 148//667 406//667 373//667
f 210//668 209//668 331//668
f 277//669 167//669 237//669
f 1//670 14//670 2//670
f 33//671 215//671 81//671
f 50//672 49//672 307//672
f 37//673 193//673 195//673
f 271//674 24//674 71//674
f 155//675 54//675 53//675
f 38//676 195//676 287//676
f 243//677 262//677 210//677
f 92//678 66//678 272//678
f 56//679 442//679 400//679
f 454//680 256//680 318//680
f 313//681 458//681 383//681
f 417//682 157//682 156//682
f 204//683 202//683 201//683
f 75//684 371//684 176//684
f 380//685 249//685 248//685
f 351//686 297//686 101//686
f 49//687 422//687 307//687
f 254//688 143//200 302//199
f 63//689 408//689 227//689
f 436//690 334//690 96//690
f 70//691 282//691 434//691
f 362//692 383//692 458//692
f 171//693 376//693 22//693
f 308//694 445//694 419//694
f 162//695 86//695 240//695
f 313//696 383//696 357//696
f 233//697 370//697 128//697
f 367//698 55//698 368//698
f 163//699 281//699 456//699
f 450//700 421//700 76//700
f 388//701 423//701 413//701
f 112//702 114//702 216//702
f 40//703 86//703 163//703
f 156//704 213//704 457//704
f 191//705 450//705 192//705
f 172//706 432//706 173//706
f 418//707 156//707 382//707
f 435//708 332//708 334//708
f 310//709 251//709 444//709
f 194//710 193//710 356//710
f 58//711 392//711 398//711
f 182//712 134//712 135//712
f 268//713 391//713 153//713
f 413//714 446//714 393//714
f 401//715 406//715 91//715
f 403//716 136//716 262//716
f 32//717 234//718 240//719
f 317//720 36//720 454//720
f 38//721 41//721 39//721
f 323//722 88//722 324//722
f 322//723 301//723 320//723
f 340//724 387//724 341//724
f 388//725 414//725 294//725
f 96//663 64//665 97//726
f 223//727 412//727 393//727
f 145//728 315//728 208//728
f 169//729 168//729 430//729
f 127//730 338//730 400//730
f 175//731 296//731 459//731
f 410//732 133//732 222//732
f 232//733 106//733 21//733
f 133//85 132//84 222//734
f 138//735 211//735 218//735
f 443//736 139//736 62//736
f 275//737 84//737 83//737
f 67//738 69//738 360//738
f 436//739 449//739 353//739
f 28//740 108//740 411//740
f 119//741 318//741 45//741
f 292//742 437//742 293//742
f 137//743 399//743 138//743
f 32//744 323//744 215//744
f 216//745 351//745 352//745
f 286//746 320//746 255//746
f 27//747 305//747 307//747
f 337//748 451//748 159//748
f 174//749 295//749 222//749
f 86//750 385//750 87//750
f 108//751 312//751 411//751
f 123//752 125//752 289//752
f 212//753 368//753 441//753
f 52//754 25//754 247//754
f 187//755 164//755 110//755
f 379//756 249//756 421//756
f 197//757 152//757 202//757
f 129//758 263//758 130//758
f 224//759 226//759 424//759
f 438//760 437//760 302//760
f 213//761 212//761 333//761
f 402//762 22//762 77//762
f 429//763 389//763 89//763
f 34//764 89//61 91//63
f 367//765 56//765 55//765
f 115//766 404//766 238//766
f 438//767 178//767 177//767
f 198//768 422//768 49//768
f 157//769 368//769 212//769
f 68//770 235//770 402//770
f 306//771 26//771 146//771
f 96//604 449//604 436//772
f 413//773 423//773 446//773
f 80//774 325//774 15//774
f 107//775 308//775 419//775
f 452//776 259//776 453//776
f 75//777 231//777 430//777
f 133//778 410//778 270//778
f 89//779 34//779 142//779
f 270//780 381//780 266//780
f 175//781 459//781 29//781
f 168//782 450//782 430//782
f 91//783 406//783 397//783
f 431//784 232//784 21//784
f 261//785 379//785 191//785
f 57//786 274//786 377//786
f 183//787 310//787 366//787
f 252//788 84//788 275//788
f 374//789 315//789 145//789
f 305//790 27//790 306//790
f 338//791 127//791 42//791
f 110//792 190//792 46//792
f 22//793 24//793 271//793
f 251//794 310//794 244//794
f 325//795 297//795 298//795
f 363//796 116//796 369//796
f 128//797 32//797 233//797
f 364//798 405//798 338//798
f 424//799 337//799 159//799
f 433//800 301//800 365//800
f 255//801 194//801 286//801
f 148//802 373//802 149//802
f 47//803 425//803 448//803
f 3//804 404//804 370//804
f 457//805 332//805 124//805
f 185//806 403//806 262//806
f 312//807 108//807 107//807
f 397//808 406//808 147//808
f 61//809 350//809 349//809
f 378//810 119//810 341//810
f 120//811 165//811 121//811
f 393//812 316//812 223//812
f 278//354 179//813 407//355
f 46//814 190//814 47//814
f 152//815 264//815 201//815
f 257//816 294//816 414//816
f 397//817 147//817 35//817
f 118//818 315//818 425//818
f 385//819 386//819 87//819
f 207//820 394//820 393//820
f 264//821 203//821 201//821
f 350//822 300//822 97//822
f 106//72 33//71 80//823
f 326//824 404//824 3//824
f 171//825 166//825 165//825
f 58//826 60//826 392//826
f 161//827 160//827 288//827
f 139//828 340//828 141//828
f 104//829 103//829 349//829
f 358//830 181//830 220//830
f 116//831 260//831 259//831
f 71//832 70//832 434//832
f 128//833 115//833 129//833
f 221//834 266//834 219//834
f 217//835 216//835 352//835
f 190//836 118//836 47//836
f 312//837 419//837 313//837
f 186//838 453//838 296//838
f 316//839 315//839 44//839
f 237//840 154//840 277//840
f 237//494 167//841 166//494
f 75//842 74//842 390//842
f 331//843 437//843 210//843
f 172//844 203//844 432//844
f 326//845 3//845 18//845
f 342//846 111//846 164//846
f 239//847 423//847 373//847
f 434//848 197//848 202//848
f 92//849 350//849 97//849
f 49//850 51//850 198//850
f 155//851 242//851 54//851
f 84//852 343//852 205//852
f 115//853 117//853 129//853
f 398//854 246//854 389//854
f 156//855 457//855 123//855
f 128//856 447//856 115//856
f 392//857 53//857 52//857
f 458//858 227//858 408//858
f 411//859 176//859 28//859
f 191//860 379//860 450//860
f 328//861 436//453 329//452
f 251//862 244//862 427//862
f 186//863 117//863 452//863
f 196//864 163//864 162//864
f 310//865 185//865 244//865
f 138//866 58//866 398//866
f 285//867 284//867 59//867
f 228//868 300//868 350//868
f 207//869 208//869 394//869
f 35//870 455//870 388//870
f 343//871 291//871 293//871
f 378//872 387//872 143//872
f 332//873 213//873 333//873
f 212//874 384//874 420//874
f 231//875 176//875 411//875
f 31//876 233//876 32//876
f 88//877 87//877 417//877
f 373//878 406//878 401//878
f 354//879 299//879 426//879
f 452//880 117//880 116//880
f 125//881 124//881 328//881
f 229//882 346//882 230//882
f 52//883 145//883 144//883
f 26//884 144//884 146//884
f 340//885 342//885 141//885
f 292//631 427//630 243//886
f 209//887 429//887 330//887
f 149//888 423//888 455//888
f 317//889 454//889 318//889
f 437//890 331//890 302//890
f 211//891 398//891 209//891
f 433//892 365//892 304//892
f 366//893 310//893 444//893
f 92//894 272//894 348//894
f 459//895 296//895 453//895
f 113//896 369//896 404//896
f 161//897 448//897 159//897
f 247//898 422//898 198//898
f 256//899 45//899 318//899
f 309//900 436//900 353//900
f 217//901 369//901 112//901
f 127//902 400//902 386//902
f 435//903 436//903 328//903
f 307//904 361//904 50//904
f 361//905 306//905 311//905
f 105//906 85//906 206//906
f 199//907 245//444 198//444
f 457//908 213//908 332//908
f 228//909 61//909 63//909
f 370//910 232//910 431//910
f 210//911 292//911 243//911
f 60//912 59//912 268//912
f 274//913 275//913 83//913
f 368//914 55//914 441//914
f 223//915 316//915 44//915
f 258//916 290//580 327//582
f 251//917 427//917 252//917
f 248//918 250//918 160//918
f 73//919 395//919 416//919
f 32//717 240//719 323//920
f 402//921 77//921 68//921
f 434//922 282//922 197//922
f 445//923 313//923 419//923
f 445//924 227//924 458//924
f 401//925 91//925 245//925
f 181//423 180//926 131//424
f 333//927 212//927 420//927
f 415//928 443//928 62//928
f 259//929 452//929 116//929
f 313//930 445//930 458//930
f 331//931 330//931 254//931
f 204//932 182//932 71//932
f 135//933 71//933 182//933
f 117//934 264//934 263//934
f 416//935 344//935 280//935
f 135//936 78//936 271//936
f 442//937 56//937 367//937
f 174//938 440//938 295//938
f 126//939 385//939 40//939
f 298//940 18//940 325//940
f 384//941 66//941 420//941
f 128//942 370//942 447//942
f 359//943 220//943 219//943
f 223//944 43//944 257//944
f 85//277 105//945 104//278
f 417//946 87//946 386//946
f 69//947 68//947 79//947
f 379//948 421//948 450//948
f 284//949 120//949 122//949
f 337//950 336//950 451//950
f 114//951 297//951 351//951
f 417//952 442//952 367//952
f 80//953 33//953 81//953
f 47//954 448//954 161//954
f 278//955 105//955 177//955
f 30//956 29//956 258//956
f 72//957 166//957 235//957
f 423//958 239//958 361//958
f 287//959 41//959 38//959
f 122//960 165//960 276//960
f 39//961 40//961 456//961
f 206//962 409//962 439//962
f 444//963 283//963 200//963
