# Blender v2.80 (sub 75) OBJ File: ''
# www.blender.org
mtllib CHAHIN_BANANA.mtl
o Cube.006_Cube.008
v -0.040052 0.011264 0.005608
v -0.040052 0.015600 -0.066510
v -0.029808 -0.014207 -0.074597
v -0.029808 -0.018543 0.005607
v 0.000000 -0.025375 0.005607
v 0.000000 -0.021039 -0.074597
v 0.029807 -0.014207 -0.074597
v 0.029807 -0.018543 0.005607
v 0.040052 0.011264 0.005608
v 0.040052 0.015600 -0.066510
v 0.029807 0.045407 -0.058424
v 0.029807 0.041072 0.005610
v 0.000000 0.048023 0.005610
v 0.000000 0.052358 -0.058423
v -0.029808 0.045407 -0.058424
v -0.029808 0.041072 0.005610
v -0.021109 0.062075 -0.129964
v -0.028363 0.040966 -0.129965
v 0.000000 -0.021048 0.085810
v 0.029807 -0.014216 0.085811
v 0.021108 0.019843 0.141184
v 0.000000 0.013011 0.141184
v 0.000000 0.013025 -0.129967
v -0.021109 0.019857 -0.129967
v -0.006265 0.065138 -0.167867
v 0.000000 0.058306 -0.167867
v 0.028363 0.040966 -0.129965
v 0.021108 0.019857 -0.129967
v 0.006265 0.065138 -0.167867
v 0.008419 0.071404 -0.167866
v 0.021108 0.062075 -0.129964
v 0.000000 0.069026 -0.129964
v -0.040052 0.015592 0.077727
v -0.029808 -0.014216 0.085811
v -0.021109 0.019843 0.141184
v -0.028363 0.040951 0.141185
v 0.040052 0.015592 0.077727
v 0.029807 0.045400 0.069644
v 0.021108 0.062060 0.141186
v 0.028363 0.040951 0.141185
v 0.000000 0.052351 0.069644
v -0.029808 0.045400 0.069644
v -0.021109 0.062060 0.141186
v 0.000000 0.069011 0.141187
v -0.012742 0.073132 0.179090
v -0.009483 0.063649 0.179089
v -0.007361 0.071952 0.186503
v -0.009891 0.079313 0.186503
v 0.000000 0.080038 -0.168410
v 0.006265 0.077669 -0.167866
v 0.009355 0.098474 -0.221388
v 0.000000 0.103453 -0.220843
v -0.006265 0.077669 -0.167866
v -0.008419 0.071404 -0.167866
v -0.009483 0.082615 0.179090
v 0.000000 0.089567 0.179090
v 0.009483 0.082615 0.179090
v 0.012742 0.073132 0.179090
v 0.009483 0.063649 0.179089
v 0.000000 0.056817 0.179089
v 0.000000 0.079313 0.186503
v 0.009891 0.079313 0.186503
v 0.007361 0.086674 0.186503
v 0.000000 0.093625 0.186504
v -0.007361 0.086674 0.186503
v 0.007361 0.071952 0.186503
v 0.000000 0.065120 0.186502
v 0.000000 0.089120 -0.221388
v -0.012570 0.089120 -0.221388
v -0.009355 0.098474 -0.221388
v 0.009355 0.079765 -0.221389
v 0.012570 0.089120 -0.221388
v -0.009355 0.079765 -0.221389
v 0.000000 0.072933 -0.221389
vt 0.458700 0.746900
vt 0.461200 0.787700
vt 0.404200 0.790500
vt 0.402200 0.745200
vt 0.737200 0.719300
vt 0.738300 0.666100
vt 0.793000 0.666000
vt 0.791900 0.719200
vt 0.251600 0.781400
vt 0.254100 0.733500
vt 0.311200 0.737700
vt 0.308100 0.780100
vt 0.633100 0.738400
vt 0.634000 0.780900
vt 0.579400 0.780600
vt 0.578500 0.738100
vt 0.508200 0.776400
vt 0.527800 0.812200
vt 0.494900 0.816900
vt 0.738300 0.772100
vt 0.793000 0.772000
vt 0.785900 0.807200
vt 0.746700 0.807300
vt 0.750300 0.831000
vt 0.782200 0.842000
vt 0.730700 0.873300
vt 0.724000 0.866300
vt 0.685800 0.845200
vt 0.710500 0.830600
vt 0.709400 0.869900
vt 0.702100 0.874300
vt 0.685800 0.779900
vt 0.673600 0.828700
vt 0.637300 0.829600
vt 0.471000 0.705500
vt 0.415100 0.699100
vt 0.473400 0.661100
vt 0.513400 0.662400
vt 0.263800 0.828900
vt 0.319800 0.822300
vt 0.358000 0.868900
vt 0.317900 0.869700
vt 0.686900 0.665700
vt 0.710800 0.627800
vt 0.746700 0.628200
vt 0.634000 0.696800
vt 0.579400 0.696500
vt 0.598300 0.651000
vt 0.637300 0.651400
vt 0.209000 0.729300
vt 0.268100 0.691400
vt 0.299700 0.690600
vt 0.175500 0.245800
vt 0.142200 0.169100
vt 0.291200 0.213600
vt 0.317100 0.273100
vt 0.639500 0.855900
vt 0.650200 0.855200
vt 0.659900 0.892400
vt 0.644200 0.892600
vt 0.544800 0.826300
vt 0.535000 0.827800
vt 0.623100 0.628000
vt 0.641400 0.628600
vt 0.402200 0.893100
vt 0.384200 0.893400
vt 0.776000 0.830400
vt 0.757500 0.830600
vt 0.545800 0.631100
vt 0.563800 0.631700
vt 0.621800 0.186900
vt 0.492000 0.206000
vt 0.525200 0.147300
vt 0.621800 0.082200
vt 0.871100 0.107100
vt 0.849600 0.199600
vt 0.751700 0.162100
vt 0.762100 0.082200
vt 0.871100 0.268500
vt 0.849600 0.337400
vt 0.751700 0.374900
vt 0.768400 0.321400
vt 0.364000 0.273100
vt 0.317100 0.186100
vt 0.466100 0.141700
vt 0.492000 0.219200
vt 0.458200 0.870300
vt 0.478100 0.865400
vt 0.480900 0.873500
vt 0.470300 0.880800
vt 0.360400 0.664200
vt 0.351100 0.664500
vt 0.370500 0.628500
vt 0.384400 0.628200
vt 0.423600 0.858500
vt 0.433100 0.858800
vt 0.435500 0.894700
vt 0.420500 0.894500
vt 0.578500 0.856400
vt 0.564000 0.858500
vt 0.516900 0.703400
vt 0.505000 0.740200
vt 0.219800 0.835300
vt 0.207000 0.782500
vt 0.523200 0.827400
vt 0.546300 0.857900
vt 0.372300 0.664000
vt 0.402200 0.627800
vt 0.444500 0.858500
vt 0.465100 0.859900
vt 0.350400 0.109400
vt 0.492000 0.082200
vt 0.621800 0.290700
vt 0.525200 0.255000
vt 0.546200 0.657700
vt 0.578500 0.629600
vt 0.286400 0.870600
vt 0.370000 0.893800
vt 0.782200 0.860500
vt 0.730700 0.878800
vt 0.871100 0.268500
vt 0.768400 0.215600
vt 0.339700 0.689700
vt 0.454900 0.815700
vt 0.655100 0.117900
vt 0.751700 0.082200
vt 0.751700 0.186000
vt 0.621800 0.166800
vt 0.435500 0.867100
vt 0.438300 0.875200
vt 0.686900 0.771700
vt 0.685800 0.718900
vt 0.685800 0.695800
vt 0.685000 0.737400
vt 0.410800 0.858800
vt 0.402200 0.894700
vt 0.451300 0.880800
vt 0.189100 0.082200
vt 0.317100 0.136000
vt 0.871100 0.429900
vt 0.762100 0.454800
vt 0.751700 0.290700
vt 0.655100 0.225600
vt 0.598300 0.829100
vt 0.627900 0.855400
vt 0.451200 0.653000
vt 0.529400 0.627800
vt 0.673600 0.650500
vt 0.657000 0.627800
vt 0.626500 0.892600
vt 0.785900 0.628000
vt 0.710800 0.807000
vn -0.9463 -0.3227 -0.0184
vn 0.2231 -0.9734 -0.0526
vn 0.9464 0.3225 0.0205
vn -0.2266 0.9718 0.0658
vn -0.9430 0.3304 -0.0395
vn 0.2208 -0.8229 0.5235
vn -0.2921 -0.5852 -0.7564
vn 0.7534 -0.2589 -0.6044
vn 0.2579 0.9443 0.2043
vn -0.9178 -0.2691 0.2920
vn 0.9430 0.3304 0.0396
vn -0.2208 -0.8229 -0.5236
vn -0.2578 0.9444 -0.2042
vn 0.9178 -0.2690 -0.2920
vn -0.7984 -0.2744 0.5359
vn 0.3966 0.8430 0.3634
vn -0.9203 0.3163 -0.2303
vn -0.3800 0.8363 -0.3952
vn 0.9396 0.3229 0.1131
vn 0.2719 -0.6088 0.7453
vn -0.7872 -0.2706 0.5541
vn 0.3067 0.9158 0.2595
vn -0.0000 -0.0001 1.0000
vn -0.0000 -0.0000 1.0000
vn -0.6043 0.7322 -0.3143
vn 0.9417 0.3236 0.0924
vn 0.4545 -0.5603 0.6925
vn 0.0202 0.0203 -0.9996
vn 0.9452 -0.3248 -0.0342
vn -0.6472 -0.7399 -0.1835
vn -0.9306 0.3198 0.1780
vn -0.2266 0.9718 -0.0657
vn 0.9464 0.3225 -0.0205
vn 0.2231 -0.9734 0.0525
vn -0.9463 -0.3227 0.0183
vn -0.9464 0.3225 -0.0205
vn 0.9463 -0.3227 0.0183
vn -0.9452 -0.3248 -0.0342
vn 0.9306 0.3198 0.1780
vn 0.0000 0.0001 -1.0000
vn 0.7984 -0.2744 0.5359
vn -0.9396 0.3229 0.1131
vn 0.7872 -0.2706 0.5542
vn -0.7534 -0.2589 -0.6044
vn -0.9417 0.3236 0.0924
vn 0.9430 0.3304 -0.0395
vn 0.9178 -0.2691 0.2920
vn -0.9430 0.3304 0.0396
vn 0.9203 0.3163 -0.2303
vn -0.9178 -0.2690 -0.2920
vn 0.9463 -0.3227 -0.0184
vn -0.9464 0.3225 0.0205
vn -0.2231 -0.9734 0.0525
vn 0.2266 0.9718 -0.0657
vn 0.6472 -0.7399 -0.1835
vn -0.0202 0.0203 -0.9996
vn -0.4545 -0.5603 0.6925
vn 0.6043 0.7321 -0.3143
vn -0.3067 0.9158 0.2595
vn -0.2719 -0.6088 0.7453
vn 0.3800 0.8363 -0.3952
vn -0.3966 0.8430 0.3634
vn 0.2578 0.9444 -0.2042
vn 0.2208 -0.8229 -0.5236
vn -0.2579 0.9443 0.2043
vn 0.2921 -0.5852 -0.7564
vn -0.2208 -0.8229 0.5235
vn 0.2266 0.9718 0.0658
vn -0.2231 -0.9734 -0.0526
usemtl Material.050
s 1
f 1/1/1 2/2/1 3/3/1 4/4/1
f 5/5/2 6/6/2 7/7/2 8/8/2
f 9/9/3 10/10/3 11/11/3 12/12/3
f 13/13/4 14/14/4 15/15/4 16/16/4
f 2/2/5 15/17/5 17/18/5 18/19/5
f 19/20/6 20/21/6 21/22/6 22/23/6
f 23/24/7 24/25/7 25/26/7 26/27/7
f 27/28/8 28/29/8 29/30/8 30/31/8
f 14/14/9 11/32/9 31/33/9 32/34/9
f 33/35/10 34/36/10 35/37/10 36/38/10
f 37/39/11 38/40/11 39/41/11 40/42/11
f 6/6/12 3/43/12 24/44/12 23/45/12
f 41/46/13 42/47/13 43/48/13 44/49/13
f 10/10/14 7/50/14 28/51/14 27/52/14
f 45/53/15 46/54/15 47/55/15 48/56/15
f 49/57/16 50/58/16 51/59/16 52/60/16
f 18/19/17 17/18/17 53/61/17 54/62/17
f 44/49/18 43/48/18 55/63/18 56/64/18
f 40/42/19 39/41/19 57/65/19 58/66/19
f 22/23/20 21/22/20 59/67/20 60/68/20
f 36/38/21 35/37/21 46/69/21 45/70/21
f 32/34/22 31/33/22 50/58/22 49/57/22
f 61/71/23 62/72/23 63/73/24 64/74/24
f 56/75/25 55/76/25 65/77/25 64/78/25
f 58/79/26 57/80/26 63/81/26 62/82/26
f 60/83/27 59/84/27 66/85/27 67/86/27
f 68/87/28 69/88/28 70/89/28 52/90/28
f 30/91/29 29/92/29 71/93/29 72/94/29
f 26/95/30 25/96/30 73/97/30 74/98/30
f 54/62/31 53/61/31 70/99/31 69/100/31
f 41/46/32 13/13/32 16/16/32 42/47/32
f 37/39/33 9/9/33 12/12/33 38/40/33
f 19/20/34 5/5/34 8/8/34 20/21/34
f 33/35/35 1/1/35 4/4/35 34/36/35
f 42/101/36 16/102/36 1/1/36 33/35/36
f 20/103/37 8/104/37 9/9/37 37/39/37
f 25/105/38 54/62/38 69/100/38 73/106/38
f 50/107/39 30/91/39 72/94/39 51/108/39
f 74/109/40 73/110/40 69/88/40 68/87/40
f 59/84/41 58/111/41 62/112/41 66/85/41
f 67/113/23 66/114/23 62/72/23 61/71/23
f 43/115/42 36/38/42 45/70/42 55/116/42
f 21/117/43 40/42/43 58/66/43 59/118/43
f 24/25/44 18/119/44 54/120/44 25/26/44
f 55/76/45 45/121/45 48/122/45 65/77/45
f 11/11/46 10/10/46 27/52/46 31/123/46
f 20/103/47 37/39/47 40/42/47 21/117/47
f 42/101/48 33/35/48 36/38/48 43/115/48
f 31/123/49 27/52/49 30/91/49 50/107/49
f 3/3/50 2/2/50 18/19/50 24/124/50
f 8/104/51 7/50/51 10/10/51 9/9/51
f 16/102/52 15/17/52 2/2/52 1/1/52
f 47/125/23 67/126/23 61/127/23 48/128/23
f 71/129/40 74/109/40 68/87/40 72/130/40
f 34/131/53 4/132/53 5/5/53 19/20/53
f 38/133/54 12/134/54 13/13/54 41/46/54
f 29/135/55 26/95/55 74/98/55 71/136/55
f 72/130/56 68/87/56 52/90/56 51/137/56
f 46/54/57 60/138/57 67/139/57 47/55/57
f 57/80/58 56/140/58 64/141/58 63/81/58
f 48/128/23 61/127/23 64/142/24 65/143/24
f 17/144/59 32/34/59 49/57/59 53/145/59
f 35/37/60 22/146/60 60/147/60 46/69/60
f 39/148/61 44/49/61 56/64/61 57/149/61
f 53/145/62 49/57/62 52/60/62 70/150/62
f 38/133/63 41/46/63 44/49/63 39/148/63
f 7/7/64 6/6/64 23/45/64 28/151/64
f 15/15/65 14/14/65 32/34/65 17/144/65
f 28/29/66 23/24/66 26/27/66 29/30/66
f 34/131/67 19/20/67 22/23/67 35/152/67
f 12/134/68 11/32/68 14/14/68 13/13/68
f 4/132/69 3/43/69 6/6/69 5/5/69
o Cube.006_Cube.000
v -0.055904 0.015722 0.007828
v -0.055904 0.021774 -0.092834
v -0.041605 -0.019831 -0.104121
v -0.041605 -0.025883 0.007826
v 0.000000 -0.035419 0.007826
v 0.000000 -0.029367 -0.104122
v 0.041605 -0.019831 -0.104121
v 0.041605 -0.025883 0.007826
v 0.055904 0.015722 0.007828
v 0.055904 0.021774 -0.092834
v 0.041605 0.063378 -0.081547
v 0.041605 0.057328 0.007830
v 0.000000 0.067030 0.007831
v 0.000000 0.073081 -0.081546
v -0.041605 0.063378 -0.081547
v -0.041605 0.057328 0.007830
v -0.029463 0.086643 -0.181403
v -0.039589 0.057180 -0.181404
v 0.000000 -0.029379 0.119773
v 0.041605 -0.019842 0.119774
v 0.029463 0.027697 0.197063
v 0.000000 0.018160 0.197063
v 0.000000 0.018181 -0.181406
v -0.029463 0.027717 -0.181406
v -0.008745 0.090919 -0.234306
v 0.000000 0.081383 -0.234307
v 0.039589 0.057180 -0.181404
v 0.029463 0.027717 -0.181406
v 0.008745 0.090919 -0.234306
v 0.011751 0.099664 -0.234306
v 0.029463 0.086643 -0.181403
v 0.000000 0.096346 -0.181402
v -0.055904 0.021763 0.108491
v -0.041605 -0.019842 0.119774
v -0.029463 0.027697 0.197063
v -0.039589 0.057160 0.197065
v 0.055904 0.021763 0.108491
v 0.041605 0.063369 0.097209
v 0.029463 0.086623 0.197066
v 0.039589 0.057160 0.197065
v 0.000000 0.073071 0.097209
v -0.041605 0.063369 0.097209
v -0.029463 0.086623 0.197066
v 0.000000 0.096325 0.197067
v -0.017785 0.102077 0.249971
v -0.013237 0.088841 0.249970
v -0.010274 0.100430 0.260318
v -0.013805 0.110704 0.260319
v 0.000000 0.111717 -0.235065
v 0.008745 0.108409 -0.234306
v 0.013057 0.137449 -0.309011
v 0.000000 0.144399 -0.308250
v -0.008745 0.108409 -0.234306
v -0.011751 0.099664 -0.234306
v -0.013237 0.115314 0.249972
v 0.000000 0.125016 0.249972
v 0.013236 0.115314 0.249972
v 0.017785 0.102077 0.249971
v 0.013236 0.088841 0.249970
v 0.000000 0.079305 0.249970
v 0.000000 0.110704 0.260319
v 0.013805 0.110704 0.260319
v 0.010274 0.120978 0.260319
v 0.000000 0.130681 0.260320
v -0.010274 0.120978 0.260319
v 0.010274 0.100430 0.260318
v 0.000000 0.090894 0.260318
v 0.000000 0.124392 -0.309011
v -0.017545 0.124392 -0.309011
v -0.013057 0.137449 -0.309011
v 0.013057 0.111335 -0.309012
v 0.017544 0.124392 -0.309011
v -0.013057 0.111335 -0.309012
v 0.000000 0.101799 -0.309013
vt 0.458700 0.746900
vt 0.461200 0.787700
vt 0.404200 0.790500
vt 0.402200 0.745200
vt 0.737200 0.719300
vt 0.738300 0.666100
vt 0.793000 0.666000
vt 0.791900 0.719200
vt 0.251600 0.781400
vt 0.254100 0.733500
vt 0.311200 0.737700
vt 0.308100 0.780100
vt 0.633100 0.738400
vt 0.634000 0.780900
vt 0.579400 0.780600
vt 0.578500 0.738100
vt 0.508200 0.776400
vt 0.527800 0.812200
vt 0.494900 0.816900
vt 0.738300 0.772100
vt 0.793000 0.772000
vt 0.785900 0.807200
vt 0.746700 0.807300
vt 0.750300 0.831000
vt 0.782200 0.842000
vt 0.730700 0.873300
vt 0.724000 0.866300
vt 0.685800 0.845200
vt 0.710500 0.830600
vt 0.709400 0.869900
vt 0.702100 0.874300
vt 0.685800 0.779900
vt 0.673600 0.828700
vt 0.637300 0.829600
vt 0.471000 0.705500
vt 0.415100 0.699100
vt 0.473400 0.661100
vt 0.513400 0.662400
vt 0.263800 0.828900
vt 0.319800 0.822300
vt 0.358000 0.868900
vt 0.317900 0.869700
vt 0.686900 0.665700
vt 0.710800 0.627800
vt 0.746700 0.628200
vt 0.634000 0.696800
vt 0.579400 0.696500
vt 0.598300 0.651000
vt 0.637300 0.651400
vt 0.209000 0.729300
vt 0.268100 0.691400
vt 0.299700 0.690600
vt 0.175500 0.245800
vt 0.142200 0.169100
vt 0.291200 0.213600
vt 0.317100 0.273100
vt 0.639500 0.855900
vt 0.650200 0.855200
vt 0.659900 0.892400
vt 0.644200 0.892600
vt 0.544800 0.826300
vt 0.535000 0.827800
vt 0.623100 0.628000
vt 0.641400 0.628600
vt 0.402200 0.893100
vt 0.384200 0.893400
vt 0.776000 0.830400
vt 0.757500 0.830600
vt 0.545800 0.631100
vt 0.563800 0.631700
vt 0.621800 0.186900
vt 0.492000 0.206000
vt 0.525200 0.147300
vt 0.621800 0.082200
vt 0.871100 0.107100
vt 0.849600 0.199600
vt 0.751700 0.162100
vt 0.762100 0.082200
vt 0.871100 0.268500
vt 0.849600 0.337400
vt 0.751700 0.374900
vt 0.768400 0.321400
vt 0.364000 0.273100
vt 0.317100 0.186100
vt 0.466100 0.141700
vt 0.492000 0.219200
vt 0.458200 0.870300
vt 0.478100 0.865400
vt 0.480900 0.873500
vt 0.470300 0.880800
vt 0.360400 0.664200
vt 0.351100 0.664500
vt 0.370500 0.628500
vt 0.384400 0.628200
vt 0.423600 0.858500
vt 0.433100 0.858800
vt 0.435500 0.894700
vt 0.420500 0.894500
vt 0.578500 0.856400
vt 0.564000 0.858500
vt 0.516900 0.703400
vt 0.505000 0.740200
vt 0.219800 0.835300
vt 0.207000 0.782500
vt 0.523200 0.827400
vt 0.546300 0.857900
vt 0.372300 0.664000
vt 0.402200 0.627800
vt 0.444500 0.858500
vt 0.465100 0.859900
vt 0.350400 0.109400
vt 0.492000 0.082200
vt 0.621800 0.290700
vt 0.525200 0.255000
vt 0.546200 0.657700
vt 0.578500 0.629600
vt 0.286400 0.870600
vt 0.370000 0.893800
vt 0.782200 0.860500
vt 0.730700 0.878800
vt 0.871100 0.268500
vt 0.768400 0.215600
vt 0.339700 0.689700
vt 0.454900 0.815700
vt 0.655100 0.117900
vt 0.751700 0.082200
vt 0.751700 0.186000
vt 0.621800 0.166800
vt 0.435500 0.867100
vt 0.438300 0.875200
vt 0.686900 0.771700
vt 0.685800 0.718900
vt 0.685800 0.695800
vt 0.685000 0.737400
vt 0.410800 0.858800
vt 0.402200 0.894700
vt 0.451300 0.880800
vt 0.189100 0.082200
vt 0.317100 0.136000
vt 0.871100 0.429900
vt 0.762100 0.454800
vt 0.751700 0.290700
vt 0.655100 0.225600
vt 0.598300 0.829100
vt 0.627900 0.855400
vt 0.451200 0.653000
vt 0.529400 0.627800
vt 0.673600 0.650500
vt 0.657000 0.627800
vt 0.626500 0.892600
vt 0.785900 0.628000
vt 0.710800 0.807000
vn -0.9463 -0.3227 -0.0184
vn 0.2231 -0.9734 -0.0526
vn 0.9464 0.3225 0.0205
vn -0.2266 0.9718 0.0658
vn -0.9430 0.3304 -0.0395
vn 0.2208 -0.8229 0.5235
vn -0.2921 -0.5852 -0.7564
vn 0.7534 -0.2589 -0.6044
vn 0.2579 0.9443 0.2043
vn -0.9178 -0.2691 0.2920
vn 0.9430 0.3304 0.0396
vn -0.2208 -0.8229 -0.5236
vn -0.2578 0.9444 -0.2042
vn 0.9178 -0.2690 -0.2920
vn -0.7984 -0.2744 0.5359
vn 0.3966 0.8430 0.3634
vn -0.9203 0.3163 -0.2303
vn -0.3800 0.8363 -0.3952
vn 0.9396 0.3229 0.1131
vn 0.2719 -0.6088 0.7453
vn -0.7872 -0.2706 0.5541
vn 0.3067 0.9158 0.2595
vn -0.0000 -0.0001 1.0000
vn 0.0000 -0.0000 1.0000
vn -0.6043 0.7322 -0.3143
vn 0.9417 0.3236 0.0924
vn 0.4545 -0.5603 0.6925
vn 0.0202 0.0203 -0.9996
vn 0.9452 -0.3248 -0.0342
vn -0.6472 -0.7399 -0.1835
vn -0.9306 0.3198 0.1780
vn -0.2266 0.9718 -0.0657
vn 0.9464 0.3225 -0.0205
vn 0.2231 -0.9734 0.0525
vn -0.9463 -0.3227 0.0183
vn -0.9464 0.3225 -0.0205
vn 0.9463 -0.3227 0.0183
vn -0.9452 -0.3248 -0.0342
vn 0.9306 0.3198 0.1780
vn 0.0000 0.0001 -1.0000
vn 0.7984 -0.2744 0.5359
vn -0.9396 0.3229 0.1131
vn 0.7872 -0.2706 0.5542
vn -0.7534 -0.2589 -0.6044
vn -0.9417 0.3236 0.0924
vn 0.9430 0.3304 -0.0395
vn 0.9178 -0.2691 0.2920
vn -0.9430 0.3304 0.0396
vn 0.9203 0.3163 -0.2303
vn -0.9178 -0.2690 -0.2920
vn 0.9463 -0.3227 -0.0184
vn -0.9464 0.3225 0.0205
vn -0.2231 -0.9734 0.0525
vn 0.2266 0.9718 -0.0657
vn 0.6472 -0.7399 -0.1835
vn -0.0202 0.0203 -0.9996
vn -0.4545 -0.5603 0.6925
vn 0.6043 0.7321 -0.3143
vn -0.3067 0.9158 0.2595
vn -0.2719 -0.6088 0.7453
vn 0.3800 0.8363 -0.3952
vn -0.3966 0.8430 0.3634
vn 0.2578 0.9444 -0.2042
vn 0.2208 -0.8229 -0.5236
vn -0.2579 0.9443 0.2043
vn 0.2921 -0.5852 -0.7564
vn -0.2208 -0.8229 0.5235
vn 0.2266 0.9718 0.0658
vn -0.2231 -0.9734 -0.0526
usemtl Material.001
s 1
f 75/153/70 76/154/70 77/155/70 78/156/70
f 79/157/71 80/158/71 81/159/71 82/160/71
f 83/161/72 84/162/72 85/163/72 86/164/72
f 87/165/73 88/166/73 89/167/73 90/168/73
f 76/154/74 89/169/74 91/170/74 92/171/74
f 93/172/75 94/173/75 95/174/75 96/175/75
f 97/176/76 98/177/76 99/178/76 100/179/76
f 101/180/77 102/181/77 103/182/77 104/183/77
f 88/166/78 85/184/78 105/185/78 106/186/78
f 107/187/79 108/188/79 109/189/79 110/190/79
f 111/191/80 112/192/80 113/193/80 114/194/80
f 80/158/81 77/195/81 98/196/81 97/197/81
f 115/198/82 116/199/82 117/200/82 118/201/82
f 84/162/83 81/202/83 102/203/83 101/204/83
f 119/205/84 120/206/84 121/207/84 122/208/84
f 123/209/85 124/210/85 125/211/85 126/212/85
f 92/171/86 91/170/86 127/213/86 128/214/86
f 118/201/87 117/200/87 129/215/87 130/216/87
f 114/194/88 113/193/88 131/217/88 132/218/88
f 96/175/89 95/174/89 133/219/89 134/220/89
f 110/190/90 109/189/90 120/221/90 119/222/90
f 106/186/91 105/185/91 124/210/91 123/209/91
f 135/223/92 136/224/92 137/225/93 138/226/93
f 130/227/94 129/228/94 139/229/94 138/230/94
f 132/231/95 131/232/95 137/233/95 136/234/95
f 134/235/96 133/236/96 140/237/96 141/238/96
f 142/239/97 143/240/97 144/241/97 126/242/97
f 104/243/98 103/244/98 145/245/98 146/246/98
f 100/247/99 99/248/99 147/249/99 148/250/99
f 128/214/100 127/213/100 144/251/100 143/252/100
f 115/198/101 87/165/101 90/168/101 116/199/101
f 111/191/102 83/161/102 86/164/102 112/192/102
f 93/172/103 79/157/103 82/160/103 94/173/103
f 107/187/104 75/153/104 78/156/104 108/188/104
f 116/253/105 90/254/105 75/153/105 107/187/105
f 94/255/106 82/256/106 83/161/106 111/191/106
f 99/257/107 128/214/107 143/252/107 147/258/107
f 124/259/108 104/243/108 146/246/108 125/260/108
f 148/261/109 147/262/109 143/240/109 142/239/109
f 133/236/110 132/263/110 136/264/110 140/237/110
f 141/265/92 140/266/92 136/224/92 135/223/92
f 117/267/111 110/190/111 119/222/111 129/268/111
f 95/269/112 114/194/112 132/218/112 133/270/112
f 98/177/113 92/271/113 128/272/113 99/178/113
f 129/228/114 119/273/114 122/274/114 139/229/114
f 85/163/115 84/162/115 101/204/115 105/275/115
f 94/255/116 111/191/116 114/194/116 95/269/116
f 116/253/117 107/187/117 110/190/117 117/267/117
f 105/275/118 101/204/118 104/243/118 124/259/118
f 77/155/119 76/154/119 92/171/119 98/276/119
f 82/256/120 81/202/120 84/162/120 83/161/120
f 90/254/121 89/169/121 76/154/121 75/153/121
f 121/277/92 141/278/92 135/279/92 122/280/92
f 145/281/109 148/261/109 142/239/109 146/282/109
f 108/283/122 78/284/122 79/157/122 93/172/122
f 112/285/123 86/286/123 87/165/123 115/198/123
f 103/287/124 100/247/124 148/250/124 145/288/124
f 146/282/125 142/239/125 126/242/125 125/289/125
f 120/206/126 134/290/126 141/291/126 121/207/126
f 131/232/127 130/292/127 138/293/127 137/233/127
f 122/280/92 135/279/92 138/294/93 139/295/93
f 91/296/128 106/186/128 123/209/128 127/297/128
f 109/189/129 96/298/129 134/299/129 120/221/129
f 113/300/130 118/201/130 130/216/130 131/301/130
f 127/297/131 123/209/131 126/212/131 144/302/131
f 112/285/132 115/198/132 118/201/132 113/300/132
f 81/159/133 80/158/133 97/197/133 102/303/133
f 89/167/134 88/166/134 106/186/134 91/296/134
f 102/181/135 97/176/135 100/179/135 103/182/135
f 108/283/136 93/172/136 96/175/136 109/304/136
f 86/286/137 85/184/137 88/166/137 87/165/137
f 78/284/138 77/195/138 80/158/138 79/157/138
