# Blender MTL File: 'None'
# Material Count: 2

newmtl Material.001
Ns 96.078443
Ka 1.000000 1.000000 1.000000
Kd 0.640000 0.640000 0.640000
Ks 0.500000 0.500000 0.500000
Ke 0.0 0.0 0.0
Ni 1.000000
d 1.000000
illum 2
map_Kd CHAHIN_BANANA_TEXTURE.jpg

newmtl Material.050
Ns 96.078443
Ka 1.000000 1.000000 1.000000
Kd 0.640000 0.640000 0.640000
Ks 0.500000 0.500000 0.500000
Ke 0.0 0.0 0.0
Ni 1.000000
d 1.000000
illum 2
map_Kd CHAHIN_BANANA_TEXTURE.jpg
