# Blender MTL File: 'None'
# Material Count: 5

newmtl 02___Default
Ns 10.000002
Ka 1.000000 1.000000 1.000000
Kd 0.192200 0.502000 0.094100
Ks 0.000000 0.000000 0.000000
Ke 0.0 0.0 0.0
Ni 1.500000
d 1.000000
illum 1

newmtl 03___Default
Ns 10.000002
Ka 1.000000 1.000000 1.000000
Kd 0.058800 0.058800 0.058800
Ks 0.000000 0.000000 0.000000
Ke 0.0 0.0 0.0
Ni 1.500000
d 1.000000
illum 1

newmtl 04___Default
Ns 10.000002
Ka 1.000000 1.000000 1.000000
Kd 1.000000 1.000000 1.000000
Ks 0.000000 0.000000 0.000000
Ke 0.0 0.0 0.0
Ni 1.500000
d 1.000000
illum 1

newmtl 07___Default
Ns 10.000002
Ka 1.000000 1.000000 1.000000
Kd 0.149000 0.082400 0.039200
Ks 0.000000 0.000000 0.000000
Ke 0.0 0.0 0.0
Ni 1.500000
d 1.000000
illum 1

newmtl 09___Default
Ns 10.000002
Ka 1.000000 1.000000 1.000000
Kd 0.258800 0.121600 0.094100
Ks 0.000000 0.000000 0.000000
Ke 0.0 0.0 0.0
Ni 1.500000
d 1.000000
illum 1
